976.523492
1004.052638
1014.040197
1025.687933
1050.742442
965.618076
974.115926
970.916745
990.367322
994.228449
989.284575
940.853056
951.122501
993.572081
1019.715982
1006.187203
1016.915179
1078.422061
974.174305
978.751511
919.063514
926.184393
947.074963
962.226582
972.278159
985.789933
983.818679
961.222299
913.527104
1009.170115
1010.795795
1013.245624
1002.725148
1011.110334
1036.631467
1011.435626
1009.641693
1028.020478
1009.931578
1029.872008
1061.393700
1098.233238
1080.964124
1055.277382
1025.152560
974.050110
958.059457
998.706988
1011.030871
983.879555
985.272795
1038.056802
977.566169
1003.185999
979.242130
994.165505
1014.601514
988.022379
960.249466
1025.421553
1016.665253
960.679387
927.024237
996.638936
988.283492
998.173675
1020.861396
1035.896502
1000.026344
1009.088004
1024.280165
969.779377
1013.479867
974.759206
1027.086359
1032.444804
1043.364338
1007.208130
1051.893770
1036.089962
1032.673253
1034.943770
1024.636638
1018.815452
1014.269462
947.576889
983.954057
975.193452
980.893783
1016.969076
987.056514
964.834546
957.163279
945.231762
999.159437
1027.706912
1015.346603
1001.972876
946.182106
975.109538
1027.090685
1024.408331
1002.918822
977.359219
969.655400
980.768921
969.941707
993.441296
1018.239546
982.733586
1013.625174
1012.816169
1002.282315
1028.052533
1019.714107
1007.082637
981.928896
1001.233446
1014.309511
1004.456037
1013.809984
1014.773636
987.566470
1012.858059
992.604429
1028.432465
1033.585965
992.329915
960.835623
1002.825381
1035.029488
984.187374
1038.146945
1005.309510
1020.902476
1051.872364
1073.849506
1047.530787
1064.974924
1025.732433
1005.593537
1041.108966
997.321849
1011.817731
1028.033732
986.399101
1002.407427
959.751671
948.172750
971.072458
991.957795
1016.095900
1028.748501
1051.179792
1029.571962
1002.211343
1036.541194
1029.395803
1046.634281
991.693959
1029.197825
977.578131
1009.385038
969.669009
997.226532
1005.322854
1013.236403
1015.008992
982.443651
987.971614
1044.605266
1015.348378
993.119234
1006.037480
985.115378
1003.924510
1046.920670
1025.191739
1005.912586
991.785528
1019.110619
1017.228349
975.492582
993.456707
990.189615
1003.448850
1024.411496
1019.091348
1007.938035
1025.931512
985.450635
950.927021
953.007006
976.964616
981.985482
971.099453
1011.197460
1027.699502
981.601365
972.482392
975.470891
955.119034
992.802723
941.862611
970.775229
975.382287
1023.632923
1021.464885
1005.798539
998.110003
980.949766
991.798954
1040.286427
1007.342544
997.414884
955.251498
982.269645
992.531146
980.331047
1001.775073
997.683671
973.334233
998.339068
957.831107
986.461202
970.831615
992.031111
1005.756021
1029.774137
993.088033
986.816925
935.682518
986.359239
960.622035
1010.419209
967.686093
963.110638
983.069237
958.999955
987.492336
1009.637850
978.600506
968.665699
1010.439035
1018.884559
1003.191350
959.798798
992.417615
978.477824
1012.874376
996.074800
1011.490432
1004.248004
966.983962
998.185763
987.096124
976.596412
1009.337382
1016.856824
1011.287367
1040.857018
999.339653
1014.802415
996.708037
946.023380
941.838339
954.163644
994.888044
977.677369
1035.095548
1016.971735
1057.788568
1017.749815
1051.651921
1019.297613
1071.095397
1040.872725
975.049875
1015.214762
1093.500610
1006.069024
1012.130257
982.507533
1052.854295
1032.199783
1000.819430
1006.823816
1037.169818
1007.367640
963.796944
982.457479
956.254075
980.785135
995.998564
974.313137
1022.330677
1014.156398
935.800099
921.720573
1020.598941
986.426904
977.475738
1001.040521
982.379877
1003.359250
1030.592851
1002.414798
964.602329
993.506126
1044.481375
1044.397103
1028.502071
1003.171039
963.087185
983.374083
982.696376
1012.175766
982.840259
994.049418
958.843116
989.507342
1018.394406
966.768479
1008.057087
997.093507
1006.336720
1022.434621
999.163153
1023.697556
1023.384435
956.300140
1041.733782
1050.054348
1038.117013
1005.361166
1008.676683
993.230115
1011.295054
988.694382
974.714222
957.685432
1019.078247
1023.370916
990.089716
966.536485
974.423897
1051.684090
959.918566
1032.937502
959.910292
962.720516
1017.007016
1008.557045
1013.543386
1021.647974
1019.580448
962.902378
982.188079
987.306321
995.994511
1023.004845
1014.328069
998.276150
1007.497646
1031.553520
1024.161069
1024.317889
987.116637
994.322702
1012.457599
988.224736
1016.771688
1009.869091
1036.777269
1008.746982
992.670461
972.329915
964.506258
900.266803
922.529166
925.769301
965.637248
985.030649
1016.163876
1043.113400
1017.415327
993.349475
955.217930
991.241055
1002.630746
1018.468449
988.421865
1018.220568
1031.999610
990.787251
1032.496740
1004.739880
1033.200856
1011.143989
1032.263209
963.809294
1003.901468
978.241648
975.351722
974.197733
983.626584
952.375564
969.748106
946.710828
975.317416
961.273555
949.324186
969.170525
972.914581
995.835683
1008.872788
1031.065885
1020.954759
970.712851
954.186472
985.514585
967.679312
983.722039
1001.467683
988.896459
947.191190
927.819521
966.074487
1029.466496
989.121720
1020.270182
988.150422
939.599419
937.332955
934.931704
995.614459
994.705488
979.939353
963.566804
972.290933
936.401177
924.123661
982.421708
1016.307969
1002.309324
1016.439746
992.255413
954.221989
978.738567
950.718955
996.692423
1001.165533
1008.057849
1005.061213
970.164492
933.248451
950.067334
985.364449
989.331874
977.674623
979.427603
986.735926
988.462859
1002.862135
992.219571
991.224084
974.755861
978.419847
1016.681958
1019.697787
1065.854659
1008.058497
982.015549
971.846296
914.973582
937.912051
962.438220
987.122482
954.113797
964.907099
980.444460
983.284503
975.859769
1015.697981
1022.725947
1041.061570
983.393228
1015.702974
1047.856908
980.584347
984.029187
999.740198
1030.685310
998.159690
1025.326357
965.113298
941.119930
955.977019
906.366913
965.841814
964.781505
989.905822
1025.549911
973.209085
985.897691
977.984448
994.999077
980.833281
995.615620
988.045189
1061.690396
1078.939388
1079.339424
1031.543916
991.866265
1024.014997
976.974538
956.879941
977.740925
934.199986
1041.144812
983.703175
1022.511137
1021.992164
1035.121058
1054.116450
1015.042812
996.065453
933.654509
998.108987
975.892933
948.982882
950.683588
914.793712
965.846132
964.088914
968.645425
1006.716944
943.878986
962.347633
953.608599
990.678794
971.911571
1019.360521
1022.538198
995.635186
1011.439868
1041.458407
1019.279986
993.428099
992.152912
969.625921
993.296175
994.583885
1052.580841
1028.681409
1052.006691
999.002012
1035.829454
1017.452203
1024.943752
1033.520777
1007.095185
1049.209970
967.166364
957.960822
987.189679
1005.004111
1005.220688
992.845226
1019.302019
1026.420080
1039.667739
1032.960877
1007.343585
1032.655322
992.766470
940.673921
974.969972
974.357353
1006.839985
1035.926473
1009.176370
1024.075503
1059.118821
1013.586933
976.733627
994.272759
1012.232812
994.617368
987.622518
1005.829285
1010.008708
1041.332595
997.091467
979.585532
995.762507
1005.355590
1016.416616
1018.330477
1012.711151
1017.364002
1029.718750
984.957536
1038.533726
1016.103776
988.838049
963.009150
958.166039
928.025506
953.247370
1011.596003
984.165329
1003.268205
999.290899
1011.097852
1015.662160
984.854545
998.502216
1009.148337
1028.193819
994.154063
939.208922
1008.366989
1027.941968
1029.956938
1021.476449
998.870875
985.915083
1006.906953
1004.211097
992.554132
993.494553
1011.133190
1023.843555
975.861848
953.146738
1001.672926
954.694004
970.087322
1027.434727
1008.188344
1033.815741
1008.933426
956.546407
942.689214
965.549898
987.955151
1027.551383
993.025703
1006.981770
979.743861
982.813849
1038.304149
1066.068268
1055.895620
972.096140
955.084148
986.897601
995.315998
1032.610406
1024.765034
1011.518551
1015.593383
978.949685
1065.083602
1010.589368
977.240128
1015.184751
1009.714846
1009.472586
970.016133
971.930862
1022.284002
955.226084
1008.704560
1015.172475
1019.534361
1025.775126
984.522765
1000.485621
987.259010
990.246120
963.812719
986.204733
966.001074
950.238772
988.116672
1020.699836
1031.135332
1000.618522
1011.483400
1013.840839
1006.897393
955.654526
1027.618208
1002.868222
1002.323784
1009.543740
1030.961920
981.630580
982.061334
981.919240
972.281007
962.287661
971.501459
1031.443613
966.804819
949.728438
1003.761514
986.356007
1010.217463
1023.259021
1015.233148
1013.415133
1029.962833
1053.808129
999.986164
1030.951125
1019.022101
1034.877154
1042.791306
1075.547284
988.301533
998.668484
973.391506
992.461604
1008.949717
1005.511555
975.068871
979.248810
1029.912810
1003.649533
1019.884559
1017.412850
1029.355223
1000.464677
1037.364838
981.751035
1043.474628
1056.852423
1040.445444
1043.635157
1035.868580
1025.629082
1030.139635
1011.636741
1013.739229
1016.612742
976.944246
1017.173720
1031.377594
1032.396664
1077.690193
1061.309303
1047.946778
1059.125003
1020.936633
1061.795567
1028.821267
1027.163404
990.815722
979.809000
1032.193962
1032.566543
989.051268
1052.405492
1018.882400
1004.342827
987.289798
999.554381
962.551084
991.105380
1031.016346
988.614461
1005.288022
1021.959007
1016.537082
1046.320790
1012.610345
1034.530128
1035.465691
1019.292011
1001.503293
972.905181
970.822441
1004.633529
1079.917554
979.741609
1004.785339
998.778134
1029.100032
1046.506262
1019.984889
1025.145553
1017.593721
1013.016965
1011.130879
963.723576
976.506102
986.452634
1021.791683
1035.697088
1017.330071
1048.085854
1061.892336
1040.553199
1023.217860
984.471540
1019.814441
1053.603749
1056.628151
1049.155078
1007.052046
1007.815687
1004.713185
1005.401278
1069.259308
1061.306845
1063.399989
1005.316992
978.935282
1019.331097
1052.213390
1066.264792
1004.344851
1009.404425
977.492410
957.838425
989.173402
976.203720
1013.802236
1001.814531
985.479361
944.806025
978.081256
986.598457
979.248980
967.028710
1008.247747
1027.989597
1007.934616
982.180047
1015.012950
980.474929
937.714588
958.305243
939.769352
982.937697
1005.098961
1013.401275
972.217970
1023.164959
1042.383279
1036.095351
958.387417
1024.584632
1011.819085
1018.775792
995.331906
993.945355
981.359202
981.213294
1000.661630
974.555758
1020.535908
1041.149275
1000.108742
1032.270205
1027.068624
1013.655977
1061.498278
1017.020711
1009.282196
1003.231753
1012.784529
1079.027121
1080.624610
1058.282883
1026.172563
998.705566
993.402565
980.102848
1036.634504
1011.424131
1017.894375
1032.217335
1022.244055
1059.576558
1028.942234
1000.587963
978.896540
1005.137427
1026.623507
1027.505891
1029.831478
979.063940
955.021327
968.716327
967.945713
971.660331
958.234934
988.906265
958.129934
999.001679
1014.428554
1004.420493
976.899007
1048.026899
968.598716
1017.891250
1023.777779
1024.249432
1060.242289
1020.932214
974.859057
1050.605917
1007.160783
1025.066696
969.146049
981.296372
973.797653
979.058958
994.725837
1038.589691
997.216358
993.915890
990.791531
966.426088
987.341284
993.595425
969.769101
979.372854
962.842313
1015.808998
1001.261483
966.281524
1046.861169
1025.344004
992.643712
1000.038985
984.187349
985.284186
979.734331
966.834266
975.079067
989.886817
989.911289
978.335839
979.119838
989.658793
1065.140837
1012.744045
1020.014850
1026.084876
1004.341398
1005.235861
1003.684017
991.633062
1041.014702
970.291493
1003.865046
1014.554526
981.792846
990.248286
979.214832
965.327269
995.567412
960.380712
962.269541
941.932514
970.875017
1030.677298
1010.317202
1076.718124
1039.230295
1020.664991
1012.213390
1008.160856
975.892704
1000.763399
993.537400
951.165479
969.094270
977.590675
997.515661
1031.325849
1006.936292
954.997328
1001.635363
979.356471
959.133554
982.478831
993.526182
987.051974
1015.302004
978.111694
1032.543478
1033.043343
1049.012039
980.666769
976.666464
1033.164924
1005.747555
1072.886562
1064.078172
1000.722373
996.301495
978.075195
1032.109011
980.186055
941.385172
948.022688
966.708421
931.075510
941.337827
945.935333
967.831247
956.768317
965.324295
992.003647
1010.882648
950.073858
999.679564
970.547573
1004.586759
1016.153644
973.734130
1019.357616
978.805735
991.190098
983.985574
1005.942984
984.802123
999.205436
1004.148720
1010.865428
1021.850792
1042.893544
1035.547698
988.636997
1022.962437
986.945649
1029.370626
1001.182053
1025.833467
1034.183498
1020.688501
944.089733
946.762348
995.058657
977.186259
943.588484
952.681556
970.101890
1014.521413
1019.413113
1043.862693
1004.388683
1025.157076
1050.516031
1025.631859
1014.265458
1018.135906
982.801475
1047.005651
1005.502219
1045.507488
1043.260547
1030.443858
1013.937931
974.302330
973.801075
940.478879
946.032269
1003.041210
942.649542
959.332680
999.140804
971.957859
964.429982
993.009012
1009.630439
1023.630295
959.384486
913.681853
961.334330
934.979892
934.580026
959.355351
900.279525
927.491783
927.047556
994.314377
1004.634427
981.501292
1013.298374
1022.250913
1000.442141
1011.658366
1023.937250
1023.127252
1013.083962
964.865181
979.314336
1001.280018
943.327857
987.594008
1010.390400
991.747855
1008.907154
998.035423
981.658283
1042.995122
1044.014696
1050.088646
1004.372512
1033.638296
1024.131174
1002.722027
954.615176
963.554320
936.863294
1001.890438
955.742798
965.833716
993.837759
1026.813447
1023.130310
977.698686
1018.268742
1011.510505
1021.180997
1012.015478
1030.120457
1038.199215
997.923539
1027.630945
1044.373378
987.665389
999.319343
986.686491
1002.863987
1034.263814
1096.088846
1031.271339
996.285032
974.957201
951.887763
957.748778
998.311625
972.716239
991.314213
1000.487480
954.070824
1010.647061
986.361964
938.640326
958.036614
1033.426515
958.297575
966.607641
956.845979
978.908864
976.373216
983.739769
1005.994755
963.336498
976.194986
967.266420
997.142682
1009.871874
1014.598827
1041.426860
980.801730
1030.386826
969.973196
965.537727
995.325258
972.105158
975.210323
985.226638
973.109134
1022.132156
993.982336
1020.939070
994.768854
1016.451738
1042.246600
1004.277010
1029.033488
1026.086366
979.024766
1029.646816
1004.551640
1067.029203
1053.152917
1074.134290
1011.950773
1020.679958
1023.489502
963.907076
982.487242
1015.484190
1030.180505
1049.506281
1011.505783
1027.265981
985.029940
1010.123718
1003.140501
1021.014414
992.320175
1006.288103
1018.385933
977.299786
945.377711
955.019053
945.783383
972.317947
957.851621
942.469637
960.985789
988.082068
961.823328
975.997621
991.273950
1010.377545
1012.225326
1057.004391
1070.704330
1047.257737
1018.272381
1058.039543
991.520539
999.399370
1004.585491
978.238628
980.320601
1015.945135
992.612262
1016.636137
989.061930
1036.884318
1002.891187
986.032446
992.792615
1002.772002
1025.479449
959.275153
984.624354
963.862412
951.271788
959.639801
961.442050
941.788595
966.371295
971.813275
1038.190645
966.215009
977.711754
1041.779482
949.302536
953.005577
981.840942
1004.893359
1040.214303
993.348095
1043.551837
1030.582117
1009.200444
954.371206
975.685966
927.883469
963.192868
964.612829
1016.077739
1021.584315
1027.657464
1037.000079
967.892075
973.853031
1018.173572
1001.718546
1010.296017
975.003193
962.373533
968.326115
992.897204
961.310104
984.942230
973.917860
1015.105525
1009.222818
1022.421324
967.780049
975.401336
984.337939
972.459756
997.218228
1018.870953
954.911963
978.252287
996.967961
1028.689791
980.804817
991.173763
977.666417
997.540913
999.271759
999.610160
987.043823
964.249662
1014.487830
1038.070087
1023.870898
1013.025913
958.981121
977.848975
970.928507
960.896583
963.008818
950.555732
956.528087
1009.711802
973.035031
997.027296
1019.197697
1020.378802
1021.441048
1028.215413
1000.558199
1002.491107
1001.706114
999.994286
1015.868556
1029.418694
1030.918526
1005.885576
995.926486
1011.704782
983.428786
985.833392
977.924425
989.570473
1026.271638
1005.375536
1020.325358
1013.608441
984.957002
967.474553
1040.028496
993.416119
979.497879
969.515059
1000.868752
994.954976
1032.831721
1015.220839
913.476508
968.121614
945.076909
976.133560
950.625146
993.443825
987.505197
1015.643811
963.786949
998.829813
1008.284049
937.699442
991.379667
925.253237
938.220222
979.538677
974.209592
1004.165323
979.511029
1039.693376
985.833393
976.813924
963.930173
1024.265485
993.740985
959.031409
964.314049
980.543809
967.639138
1020.714611
1022.786854
1034.034379
1070.333607
1021.174417
1008.063431
1014.632824
1015.231223
1046.856537
996.199589
998.812826
1049.868115
1008.068243
1008.316940
952.059373
1025.269083
1030.622960
1049.958261
993.670263
992.801612
967.885901
970.774331
1011.399059
952.586445
1000.221185
1021.160564
1035.817396
1022.817991
1001.412785
1022.510645
1039.088882
1026.066468
1010.488063
1011.179860
1016.308756
1032.838201
1056.217625
1023.472096
986.663653
990.528388
1001.237780
1002.194969
979.305630
1013.088159
967.838224
991.244334
979.173087
974.038449
972.095505
1024.106350
1011.248582
1007.023247
1027.558757
1028.078546
1027.097426
944.023886
1012.965845
974.459995
972.018551
1023.620595
983.771697
990.022985
991.242900
1014.865250
1054.406672
1048.270681
1051.524473
1009.984850
1003.586753
987.030300
1084.198650
1021.119809
1008.108725
977.441926
1012.499647
982.932489
1040.765245
1041.031522
1024.456946
1059.928227
1073.173542
1030.207450
1029.111365
994.804167
1013.328642
1041.432367
1041.062000
994.545038
1002.615292
1018.967812
998.526318
1004.700332
949.463059
969.104539
990.030205
946.068123
981.831243
976.058137
986.923478
964.234290
998.733073
984.676473
1004.129664
956.759484
994.250003
1006.550640
1009.689859
1041.107575
1032.102021
1049.591469
1004.381997
1019.380104
1015.652505
1009.588566
960.343448
1072.334331
1031.938278
986.140265
1019.680182
1043.420336
1044.818967
1038.704947
1019.732941
1037.563285
967.523127
1006.206046
1012.491558
981.246103
1024.528986
1100.771272
993.378497
1035.752822
1022.364299
986.368504
1015.100382
1014.016848
1030.535826
1013.441926
1026.477084
962.736579
977.231840
968.995909
970.953358
991.585442
1025.746140
994.572185
980.172813
1013.762320
1088.360632
1017.706776
1000.617349
980.603311
993.316816
946.969213
1017.986181
1042.425334
1056.487453
1028.548690
1036.302357
1056.270705
988.464267
1002.500529
1037.468587
983.585684
986.239603
980.477199
1001.382499
1023.863314
971.900168
999.401751
999.225245
1010.905007
989.641454
982.781085
993.179929
976.434575
1026.684501
1056.570147
1020.252742
1059.198462
1039.716095
1026.286761
1054.620378
1032.069372
986.940470
1024.035050
1030.785132
1014.286352
1024.741544
1018.682326
1037.976077
1050.945695
990.641595
1005.347664
949.901887
1035.747061
1036.859487
1002.672942
988.448568
1023.276344
1021.991237
1041.948100
1074.786891
1035.311467
1021.210191
1060.845834
1026.655214
1032.688093
1005.492440
1045.943086
996.931967
1027.001405
1040.705388
1002.609446
962.002793
1000.018459
982.141776
999.860431
970.512146
983.153158
1011.263766
1037.815530
1008.914371
1027.840239
1002.403458
1008.005872
1005.062172
970.348487
1009.898526
987.368582
1003.128116
1015.235570
1010.855255
1003.743513
1023.867374
1024.628133
1029.567777
1013.440526
985.167856
989.955023
1044.924250
999.151679
983.765112
1019.249068
978.123060
988.288339
1005.060666
1010.907871
994.415972
1002.026968
1015.079103
989.490916
1008.093308
996.507644
980.051212
993.194475
990.558555
1017.456993
1007.799902
992.039472
1004.339137
983.033280
995.042681
970.057704
1001.030343
1022.759493
989.121116
1008.503694
1021.471111
966.441542
1000.518881
990.757281
931.524109
980.152634
976.416892
960.426129
984.812676
1033.935163
1016.126872
986.641607
975.647086
1025.443496
1013.180342
1024.824381
981.940897
984.747447
959.412912
984.178781
973.845354
992.728634
1051.521275
1025.338872
1003.804340
1007.499588
1003.946552
976.879413
1052.168928
1047.618923
1015.943830
1009.222878
992.014661
1013.578022
1052.221097
1017.484298
1020.290396
1047.056561
1042.790331
1018.318502
986.798476
996.260914
1021.864722
1045.528099
1032.535192
1034.105280
986.423488
1043.560298
1023.841450
1026.912561
1063.624420
1031.053749
1065.678513
1028.834678
1027.259405
1033.683106
1031.011454
977.932250
996.904229
1013.454464
1007.342063
1043.886531
1049.700098
1020.667189
1012.255201
1029.683966
1049.135112
1020.973198
1017.278929
1037.018099
1016.444400
1000.815729
1007.663032
1007.941608
993.519726
1001.953419
1018.372639
1029.476828
1031.679129
1013.361643
1030.740076
1005.048360
1013.609032
926.221983
988.424043
1032.822168
1051.613792
1053.507982
1021.583369
984.055328
1015.988037
1011.912411
1017.199606
1040.168526
985.133797
972.358790
920.040402
979.465529
984.477141
1002.411765
983.129129
967.738738
995.692400
972.396020
966.291799
1016.149970
1027.402406
1016.893650
991.478723
1011.784097
1014.441150
995.645207
972.972547
969.268522
983.508445
955.017208
1030.751244
991.619097
1056.544254
1083.004352
1103.119859
1047.790915
1049.788385
1064.130739
1017.771129
1056.735405
1038.560894
1031.195534
1056.646549
1047.898288
1028.418790
1004.768092
1008.450542
1028.795083
993.651546
932.902938
967.492953
976.774705
967.636506
978.005296
926.595364
982.944991
1002.290783
1052.542610
999.719028
1008.327013
1000.145203
997.560861
1013.023906
1040.594043
1032.159767
1071.015091
1030.057867
999.802086
1045.316474
1050.820063
1060.741329
975.834368
974.505499
986.246222
1065.051109
1016.209737
1005.389110
974.297407
962.917501
985.553800
999.619950
982.893670
999.791123
1007.432203
1031.946529
1006.959520
978.569136
1008.008216
990.838548
967.170277
995.342663
1032.177120
999.542307
976.987390
961.313899
965.582558
983.888950
1006.564332
1024.178460
1048.928235
969.276174
1037.462921
1052.683642
996.343084
960.428254
991.429647
1032.030352
1009.829171
1016.634758
980.262053
965.584102
1018.901357
1004.200743
1012.536597
1025.917005
1023.895161
1031.530712
971.613288
994.629858
976.219888
942.647551
961.336229
952.255337
1012.181432
1019.550209
1004.355286
998.218789
1008.632798
1013.628110
977.814805
945.436398
978.089652
991.205014
1001.410888
982.311575
1013.903369
974.968400
1050.984201
1014.012768
1077.279577
1055.849351
1082.386103
1079.752923
1010.990784
1035.543355
1033.027967
1021.537033
993.845492
996.704276
993.579913
958.028644
982.061629
1012.548879
994.562294
990.967671
1016.134403
1090.699111
1060.776438
1059.874484
1026.125244
1012.872748
1027.398867
1020.173296
1033.235496
1015.091852
1021.132741
1006.484377
1016.219207
989.365313
1030.981032
1070.090822
983.646804
1036.064669
978.560480
966.877520
982.492650
1011.235700
1042.602562
1000.632883
986.723825
1030.446559
1001.000954
990.894406
1008.043874
1041.254749
1069.693772
1035.400013
1050.310427
1022.939761
998.359847
1049.243354
1047.738483
1032.360117
1015.906718
1009.718318
986.716070
1016.027163
1004.020142
1007.837069
970.270575
950.082535
986.330901
983.205337
1032.052178
996.145557
991.012185
1017.008042
1010.072537
999.368662
1092.287507
1081.618649
1035.419551
1006.706187
1019.160740
1002.156594
1040.836400
1025.914471
1018.744453
970.120891
979.364575
1001.895876
991.670083
1014.388994
1021.346097
960.844624
980.166477
923.598967
937.238741
978.615499
951.659942
968.888507
960.599268
1023.224096
1041.572104
985.777058
1012.891416
1025.757107
980.810256
1017.827717
1000.332785
1015.063406
1016.659223
1003.602826
990.210954
999.669673
1004.300272
995.609466
1015.714276
1028.427303
967.084162
953.528909
961.757172
971.232210
964.629775
986.209632
968.848938
975.230146
992.224935
978.212403
1036.312242
1011.787610
1009.907836
989.222956
994.299071
1007.062823
1035.069505
999.242033
988.912255
1009.274146
998.890868
1019.892834
988.747947
1036.628825
1010.569460
1067.120151
1061.639108
981.724171
965.784438
1034.754710
1041.132275
1003.618032
1014.394207
1030.916642
985.161138
1009.212023
1009.563057
957.337327
989.497719
985.515995
1041.037416
1025.014186
1010.093992
950.465842
985.530647
1001.173399
1028.888696
1005.337070
1028.513666
991.264440
1015.140287
1023.531455
987.569305
997.640560
1019.136065
993.016698
1008.457598
1001.757363
986.503595
940.917256
943.103143
971.772836
1011.264865
1036.307147
1042.794519
1057.126111
999.143031
965.084282
978.781212
1003.488153
950.828557
956.127720
972.211632
974.353886
962.885874
955.636027
1000.626173
1027.897847
998.676188
1022.583933
999.220429
974.999439
1039.051780
1011.771468
1030.158569
1086.765724
1088.972489
1051.486454
1108.200160
1045.905064
1056.062525
1042.941637
1033.687381
1002.657344
992.897856
1038.563847
1041.403121
1019.354860
956.755700
998.236379
1017.248416
1007.497974
996.134868
985.242894
1035.895498
1032.855438
1023.888374
990.654503
1013.404234
1056.273996
1019.579342
998.318153
1035.148943
1026.199324
1060.367975
1040.561338
1030.268776
1035.802927
1006.442777
1003.288647
1044.696478
1000.415068
994.450420
996.413894
1007.073665
995.685172
977.682985
990.739942
1002.919465
1016.680339
1009.428846
958.865053
978.673577
993.810881
992.080295
1005.790602
1010.448625
984.393496
1026.063875
1057.025624
1008.141804
1051.599697
1034.611893
1023.407626
1036.498186
1006.983834
988.448814
988.781036
981.109407
1007.125068
1042.607141
985.326421
999.622363
1078.269688
1072.608210
1070.227011
1044.272658
993.859581
977.953606
971.357866
1029.127876
1031.484075
1044.743035
1047.037017
1000.071839
1009.139297
1028.788969
1038.686575
1005.661332
996.912243
1005.068028
1023.783625
1023.834589
998.525564
995.335453
1021.003483
1029.102286
1022.675552
995.959751
1011.554077
980.414175
1045.499533
1022.334175
982.750788
972.508481
969.901544
950.863182
995.686217
1006.137063
1019.959566
992.124982
1007.376985
987.241126
1035.154694
1024.415439
1064.661532
1023.108298
1012.984028
972.915492
981.476068
955.747696
982.896790
1010.494251
985.292148
979.785401
1001.916394
998.556035
1006.204583
1058.089219
1040.336554
1024.337129
1065.716510
1024.745054
1017.452839
949.160207
960.382698
955.633066
961.074078
988.963712
1076.686055
1031.465751
1065.996292
1044.581849
1014.664250
987.937573
1007.704203
992.609180
1072.200243
1072.704414
1019.633433
1002.589333
1038.791282
1053.396627
995.035883
993.974351
989.563423
972.993479
1001.401119
977.699594
973.898807
983.560566
1008.961877
1060.961900
1008.342710
1025.571647
1063.229578
993.202510
1034.585858
1051.292617
1055.335252
1029.449856
947.942222
1013.895615
1043.413858
1058.791163
979.433067
957.527204
951.920623
978.487015
954.504122
1033.886853
1015.298631
939.671257
1001.579078
974.645684
955.778279
977.537641
974.628349
995.722690
976.846683
1001.453609
988.895757
989.580140
995.276851
980.993668
979.568514
1012.565966
1019.441435
999.004322
963.057622
1015.540399
984.225649
1010.932295
996.463930
983.299577
972.732386
973.714312
965.686702
986.029606
960.831319
918.561933
919.369455
980.103290
990.083889
983.899414
972.973154
1003.017106
1000.709302
1006.632269
1031.010006
990.940133
1005.039206
1012.072410
995.172007
988.146537
1008.001011
1007.886615
985.207545
1001.320223
1028.695256
993.414036
1030.045462
1007.021320
972.028631
952.835807
1025.660517
1044.315089
1057.239984
1052.373417
1043.064885
989.004016
943.714160
1017.937365
1001.323281
1009.038732
983.974860
1033.522291
988.483672
962.405429
936.543964
986.899123
978.003561
1057.672673
1033.145758
1025.701512
1019.262466
958.191267
1012.249944
1027.859923
1001.523278
973.598732
1000.633449
990.059393
975.474975
1000.347101
1049.350890
1026.371934
1056.214482
1062.349162
967.575804
936.057066
1005.606091
987.419272
995.961968
1019.491852
963.647553
957.352859
981.597926
995.817533
999.251193
995.056769
1029.583756
974.185360
996.206321
940.274903
946.653710
989.891386
962.067709
951.405041
952.711327
989.824304
999.906877
1002.098957
969.721751
967.234685
949.261741
952.084890
993.669474
931.362679
950.210185
982.849325
1027.260529
994.904943
961.984690
962.688706
960.208261
991.866356
947.389185
1024.229326
964.408496
981.694752
984.548160
965.970945
957.590459
1033.152180
1014.794017
1035.564211
1016.685234
1025.753404
1064.806909
995.050044
1054.800519
1051.452640
1044.002526
1020.273352
1048.484718
1016.460460
1065.131851
1025.874666
1051.292722
1057.457194
1026.995324
1034.483511
1010.110946
980.638192
992.075425
968.318648
943.751646
968.787533
998.524247
961.227184
978.305403
975.054326
1020.472632
1024.030928
1021.624295
969.079460
1036.585114
1025.700122
1035.075281
1010.482498
1043.100350
1022.637988
967.808958
948.907022
962.674398
945.420392
966.044536
997.369470
1012.026400
1061.918929
1063.642622
1049.451799
999.738058
1018.715535
975.989349
925.867307
956.685437
994.029563
954.862685
968.713856
974.239754
1008.020650
990.131032
999.320550
1001.151133
1043.517766
1011.714816
991.423353
1030.682649
1025.362304
1031.443638
1027.974200
1076.299604
1074.437351
1004.399882
1043.737807
1037.954957
1046.386119
1024.302584
1062.158312
1030.052136
972.805641
970.648568
1002.017137
1020.955862
1012.510714
1015.555847
965.965373
1032.662596
1034.005025
1022.237097
1035.331764
1040.137920
1038.635930
1027.385523
1020.864807
1001.147725
1035.445836
1057.791984
1035.767479
1026.429370
1031.152852
1044.896186
1074.088746
1004.617415
1035.743972
1061.840423
1033.923764
1037.868831
1020.808668
1038.934266
1038.711120
1025.442572
1009.844639
1010.045412
972.037596
1013.209758
1063.227345
1100.476604
1108.385345
1014.857905
1001.089584
996.271608
1001.892716
992.424593
998.912657
966.256406
977.051037
996.953790
979.731954
977.385450
992.437085
1015.027726
1036.683732
1032.478252
1025.362138
1014.708657
1017.478181
1030.360224
1026.459358
991.259287
1006.389720
1011.928892
968.263052
1032.709103
1044.755838
989.460539
1023.088879
990.144997
946.895266
986.738515
1014.903476
1052.512772
1002.478571
1000.572491
985.559371
1007.032557
1010.392360
1036.463741
1030.227730
997.774006
964.407743
958.178173
894.392825
948.144299
997.386755
973.214002
960.655180
1011.212507
1029.640955
1027.945170
1005.207500
1010.037093
983.377754
949.323137
961.598510
1001.767907
996.340916
991.121035
945.250384
941.371989
984.342429
979.843043
1006.796204
992.596503
1001.983524
999.432569
951.648686
977.798569
1029.271966
1015.848405
1005.502336
1000.487206
992.912152
970.506466
1014.940786
1046.812414
1060.063059
993.547823
979.542218
987.507511
970.816168
986.661567
993.440835
985.332243
1023.428009
964.076705
1010.553177
950.304427
979.322301
969.843094
972.912342
1047.750157
1000.067498
1015.786518
1004.031140
955.852543
1023.658170
990.452053
975.947537
991.624781
963.651308
972.497361
989.599829
992.095381
1073.213262
1051.590282
1036.203101
1009.107369
1003.515230
977.006725
1018.882830
924.809962
983.154494
979.741863
981.013274
999.164677
1013.740875
985.182324
1027.659329
983.874205
987.902236
1043.125590
965.351764
984.542506
1033.331536
989.243035
1025.928907
983.259960
980.453367
962.722388
948.676927
1012.096742
1034.628493
982.989297
1005.236273
990.487990
983.246287
994.036247
999.708979
981.035556
967.123405
1008.140186
1044.051820
979.539320
985.462664
1001.795199
990.572675
961.581993
1047.898529
991.166544
1021.052774
1033.781982
996.898615
1005.547567
1015.403033
1001.945080
1001.684382
1013.270924
967.814801
1024.835532
984.064441
1003.985333
965.678011
984.181843
1074.925944
1005.588592
1017.680946
1012.125222
969.690362
963.267747
986.941888
970.451668
929.537055
897.810111
927.479432
915.028436
936.515355
971.316938
977.054240
981.814779
984.344256
989.303908
962.133294
972.150131
973.729732
993.170691
998.910104
977.391324
973.981855
1034.486762
1063.651285
1009.466949
1040.892946
1017.644988
966.711219
972.087952
973.960528
1019.811586
1006.274747
1021.695781
1059.178679
1033.398087
991.186396
992.269290
977.905797
1026.804812
979.342466
1021.133298
1046.088162
1052.835317
1031.212009
1019.666575
1022.068686
990.813618
1041.424500
1052.563557
1023.776924
1070.066005
1053.889035
1060.218963
1028.625456
1038.967361
1015.766098
1028.088882
1025.042181
1054.303964
1012.790568
1003.774181
1020.181490
987.783303
1017.234557
1017.576477
1055.838146
1020.703932
1001.829942
982.620517
1004.672940
1058.923985
1024.943035
990.337631
1059.624831
999.785021
969.595435
992.972805
963.372689
978.758974
935.009978
982.120026
975.633893
961.132473
974.326365
954.828469
1006.444901
1008.724947
1024.149716
972.567073
967.305267
968.959158
971.330070
970.588172
980.485663
968.373880
978.768811
989.708028
1000.272229
970.624043
1014.068083
1003.484579
1028.697221
995.378298
1004.155727
1045.485830
1060.531696
1034.356752
1058.497066
1046.967478
1027.960050
1051.138120
1020.754448
968.340072
1012.846392
1002.388164
973.156139
953.276235
968.642335
1008.956400
993.754654
1001.447538
983.660905
1001.715279
956.644337
1019.362379
987.997258
974.214556
971.689382
977.294124
992.386620
984.543489
950.240891
1011.475773
1026.977249
993.723954
1023.251807
1006.385279
1054.547992
1060.020493
1007.633899
967.503516
1036.819221
981.836788
954.683955
998.349169
974.384919
965.715302
972.186743
1014.291986
1008.090618
1017.137130
1051.575367
1034.675376
1022.566682
999.483096
991.083902
994.572504
961.079402
932.453340
993.942274
976.410513
971.181771
950.257868
944.586404
965.587069
989.065601
1027.955190
976.531795
990.116272
1028.816896
1037.513901
1033.798864
1029.288725
1029.135785
1007.969949
990.352689
1009.781377
1006.239135
995.759140
987.787063
1022.103954
1038.462649
1054.831920
1027.867072
1041.102730
1032.092525
980.496371
999.805366
992.923737
997.711790
1003.539602
1038.220906
1057.178890
1015.658797
1006.411377
962.051506
997.133816
968.209244
1026.689097
971.583714
991.517137
975.276213
987.780746
1010.265366
1028.930267
1057.662344
1095.536148
1030.948748
1028.340634
981.173064
968.644824
952.594967
944.049623
938.740053
991.797810
975.208368
952.832662
986.331770
985.115284
985.825105
1011.047857
1006.855669
1053.072659
1029.083356
978.055321
1013.779198
988.351769
980.298356
971.122461
974.831041
974.981346
1007.851238
998.305024
1011.400212
964.152754
948.491725
995.666677
993.494729
1011.450595
989.189473
949.309022
989.827213
1038.077147
998.793924
1002.128444
965.971129
957.008154
1007.199578
969.263494
985.644449
963.980993
964.375449
966.171478
919.058071
980.008844
983.159558
1011.081096
1012.084773
987.553060
961.597795
977.885557
1007.510616
984.325067
998.052576
966.411049
951.322962
963.691079
1020.044538
1034.868976
1011.878532
1005.424688
1019.646864
986.397134
1014.943591
1029.310728
974.821434
1028.971418
994.775119
967.764162
978.440221
1030.648146
1017.353365
978.635461
1005.478745
1048.749956
994.612420
960.304849
935.268696
993.878479
1015.646237
1038.639493
1036.520310
1050.064770
1016.204055
977.314601
969.398179
942.120966
997.888823
971.528084
977.712352
964.343983
975.411467
1018.978012
1038.546959
997.116287
985.141796
1009.820851
1046.371987
981.270136
1001.581585
976.719932
1026.121408
991.779380
1031.892009
1068.165906
1080.300401
1044.985509
1050.479928
1089.503609
1012.021717
1020.620891
983.874150
993.522894
992.206568
939.655650
974.249865
978.571364
994.969353
979.170936
980.503505
