977.066804
1003.094005
1014.491159
1025.042180
1051.092329
965.794462
974.392493
971.028931
990.868861
993.400822
989.262796
940.493621
950.998262
993.422536
1019.277493
1005.695937
1016.835313
1078.233638
974.883389
977.436979
919.066764
925.950413
947.345033
962.026800
972.565954
985.656825
983.568786
961.396752
913.186693
1008.806480
1011.404413
1013.262503
1002.160082
1010.574257
1036.216436
1011.929503
1009.806680
1027.429628
1009.972892
1028.948927
1061.732255
1097.995905
1081.100526
1055.605333
1025.558809
973.962315
957.486542
998.427603
1011.533162
983.829158
985.455970
1036.863605
977.703530
1002.946861
978.667571
993.914341
1014.492550
988.394962
960.270912
1025.541792
1016.942835
960.041886
926.823041
995.916589
987.547027
998.264047
1021.108867
1035.915736
1000.108581
1008.996965
1024.000248
970.211056
1012.737906
974.015587
1026.200159
1032.001194
1042.297604
1006.771297
1051.382404
1035.941666
1032.700098
1034.427254
1025.529919
1018.523351
1014.705882
948.647943
983.048558
974.571176
980.360588
1016.888737
987.407470
965.199639
956.548951
944.858266
997.668580
1028.114660
1015.757821
1002.371928
946.191855
974.732476
1026.756413
1024.147531
1002.990296
977.476696
969.383765
980.899750
969.813726
993.872576
1017.228502
982.760928
1013.366742
1012.886357
1002.347562
1028.069327
1019.181569
1007.370026
982.140204
1001.369759
1013.121340
1004.580801
1012.952817
1015.229062
987.543667
1013.434219
992.480574
1027.969512
1033.202099
992.707718
961.575496
1002.537848
1034.620440
984.098719
1037.595495
1005.207533
1020.810456
1051.763778
1073.762179
1047.725322
1064.085374
1026.838595
1005.797565
1040.252273
997.096282
1011.769853
1028.525335
986.184072
1001.915120
960.264298
948.156932
971.048944
991.534413
1015.926806
1029.174218
1050.550162
1029.848251
1002.308422
1036.071628
1029.961918
1046.243743
991.731722
1029.685039
977.553162
1008.940054
969.491049
997.692895
1004.585158
1013.271173
1015.107704
981.920551
987.937634
1044.527388
1015.342280
993.825081
1005.751185
984.705828
1003.926027
1047.386750
1025.635022
1005.323708
991.215013
1019.636840
1016.904897
975.626671
993.231507
989.933095
1003.544829
1024.227293
1019.271901
1008.663399
1025.962733
985.398505
951.570588
952.561001
977.427853
981.602941
971.003995
1010.885601
1027.493902
981.615938
973.105450
975.692373
954.925574
992.632289
942.115719
970.732699
975.072197
1023.373570
1021.089883
1005.943496
997.444994
980.785909
991.754992
1040.010045
1008.157792
997.102847
955.227317
982.271932
992.910260
979.649312
1002.113544
997.554531
973.655021
997.713035
957.900917
986.854963
970.339689
991.740597
1005.256906
1028.971624
993.870984
986.732981
936.386614
985.979521
960.189365
1010.315087
968.301448
963.260814
982.453291
958.817656
987.303238
1009.316688
979.018007
968.324812
1010.539224
1018.325006
1002.693580
960.451869
992.384400
978.835613
1011.804021
994.901592
1011.895987
1004.916984
966.241883
997.484194
986.907110
976.739223
1009.340164
1016.687610
1010.912939
1041.315461
999.492451
1014.994599
996.403801
946.277137
942.521270
953.802460
994.719767
977.286968
1035.017653
1016.961813
1057.633187
1017.602672
1051.501615
1019.015292
1071.577578
1041.195907
974.818129
1014.765719
1094.044646
1005.707834
1012.864972
982.530886
1053.040179
1031.555156
1000.636984
1006.650233
1036.826822
1008.247717
963.440586
982.879742
956.008603
980.838720
995.562859
974.184216
1021.619143
1014.758277
935.758965
921.422050
1019.565283
985.985364
976.925034
1000.816752
982.588064
1003.296001
1030.343134
1002.913008
964.853897
993.209807
1043.964990
1044.108588
1029.377717
1003.171725
963.049238
983.627965
982.079083
1012.135468
982.611649
993.471695
958.921029
989.592821
1018.700596
967.403622
1006.994011
997.551421
1005.657980
1022.536477
999.374810
1023.777223
1023.133902
956.526616
1041.827734
1050.053078
1037.738755
1005.606843
1008.408156
993.533567
1011.023584
989.295612
974.620233
957.724816
1018.856974
1022.902477
990.641044
966.388393
973.885511
1050.944402
960.140375
1032.185742
960.661566
962.406258
1016.552421
1007.639920
1013.752798
1021.177296
1019.360965
963.164168
982.146204
987.518540
994.926680
1023.624756
1014.774670
998.404341
1007.296435
1031.451608
1023.522197
1025.105845
987.588884
993.614874
1012.193416
988.123736
1016.798414
1009.686695
1036.197351
1009.201987
992.182203
971.835321
965.354963
900.369303
921.697607
926.067488
965.072158
984.409520
1016.006159
1043.268078
1017.749848
992.631895
955.295575
991.150951
1002.087733
1018.559950
988.981290
1018.336994
1032.073100
989.992292
1032.432213
1004.954739
1033.224560
1011.488612
1032.721632
963.247125
1004.395459
978.349422
974.877976
973.995961
984.309491
951.984292
969.880433
946.788787
974.771687
961.811878
948.844523
968.967633
972.487162
995.645706
1009.045243
1030.735182
1020.016646
970.906341
954.315294
985.519373
967.544447
983.675541
1001.568033
989.079194
947.507333
927.377512
965.939537
1028.427844
989.185408
1020.341600
988.925518
939.582447
936.132441
935.088391
995.441928
994.449549
980.283253
963.725883
971.859958
936.277657
924.041250
982.287886
1016.131916
1002.478707
1015.643651
991.942378
954.447653
978.645809
950.489265
996.639694
1000.982535
1008.069205
1005.301387
970.917479
932.632604
949.581192
985.337490
988.424800
976.896777
979.096208
986.436249
988.644230
1001.811561
991.757068
991.923106
974.677545
978.142111
1016.576418
1019.947429
1065.682194
1008.149441
982.171160
971.503990
916.061300
937.078053
962.510184
986.880300
954.117915
964.611837
980.508421
983.601270
976.105023
1014.813950
1022.566097
1040.717120
983.479467
1015.076851
1048.072856
981.197149
983.797235
999.364371
1030.734835
998.159331
1024.850059
965.594768
941.320098
955.244189
906.261759
965.089941
964.007558
989.591811
1025.173685
974.434157
985.179148
977.853680
994.794825
980.604857
994.978582
987.432954
1061.656617
1078.729843
1079.489049
1031.796302
991.337527
1024.246136
977.661084
957.040444
977.234023
934.062698
1040.602646
983.740521
1022.065379
1021.900147
1035.124052
1053.872236
1015.576470
996.380040
933.786644
997.791159
975.899407
949.258059
950.837894
915.121494
964.975914
963.554102
968.002370
1005.255116
943.398887
961.238951
953.738659
990.165828
971.233349
1019.061143
1022.893627
995.882385
1011.161535
1041.392693
1020.028617
992.991363
992.547653
969.562337
993.003099
994.170130
1052.488014
1028.345196
1052.224485
999.093964
1035.792215
1017.614224
1025.233358
1033.140903
1007.060903
1049.341564
967.817245
957.669709
986.440486
1004.694819
1005.763293
991.800529
1019.732240
1026.407262
1038.863377
1032.936329
1007.135007
1032.056880
993.403860
941.131838
974.399447
974.227192
1006.639913
1035.847918
1009.138852
1023.179793
1058.898896
1014.030433
977.607975
993.735902
1011.159953
994.500123
987.049145
1005.744986
1009.968473
1040.165289
997.480957
979.831320
994.613227
1006.073082
1016.035976
1018.413284
1012.720478
1017.194358
1030.218462
984.967029
1038.227685
1016.423004
989.059748
962.948900
958.456787
927.843945
953.582696
1011.382671
983.887403
1002.977453
998.897786
1010.498102
1016.276370
985.018035
998.398285
1008.703196
1028.580471
994.641695
939.319270
1008.099840
1027.856243
1029.583389
1021.626698
998.746019
985.837230
1006.772502
1004.069759
992.998987
993.061902
1010.937585
1024.237967
976.498081
952.430597
1000.128606
954.679912
969.913029
1027.271845
1007.958007
1034.301646
1009.426119
956.564542
942.446081
965.948702
987.369135
1027.676203
993.339168
1006.913291
979.503327
982.618435
1038.681089
1065.007169
1055.729497
972.262401
955.891019
986.566970
995.275813
1032.468541
1024.812271
1012.061209
1014.921307
979.199810
1064.818427
1011.353834
976.060761
1014.913505
1008.954732
1009.330861
969.887940
971.571588
1022.506216
955.821632
1008.505710
1014.993838
1019.510148
1026.258860
984.600259
1000.400367
987.555501
989.645537
963.976752
985.899017
966.022194
949.767121
987.724199
1020.443414
1031.589662
1000.001357
1011.606951
1012.982106
1006.767329
955.688573
1027.411762
1002.382899
1002.226050
1009.303615
1030.587523
982.172968
982.153887
981.816400
972.128033
962.742043
971.236279
1031.093990
967.305944
949.567850
1002.779411
986.382566
1010.100095
1022.628402
1015.658951
1012.750933
1030.085567
1053.853147
1000.149529
1031.148077
1018.947063
1034.800790
1042.962207
1075.343543
988.752937
998.597263
973.596910
991.916638
1008.718627
1006.121839
974.787367
978.857883
1029.991993
1003.674459
1019.639207
1017.382113
1029.152806
1000.324521
1037.695352
981.503810
1042.684957
1057.510385
1040.482929
1043.653269
1035.509313
1026.312394
1029.971739
1011.886423
1014.196295
1016.513481
976.700418
1017.279551
1030.938779
1032.108751
1077.103721
1061.419642
1047.650335
1058.770274
1021.521551
1061.434892
1028.976871
1027.390371
990.954091
979.612227
1032.392268
1032.312109
989.082041
1052.112580
1018.755984
1004.161425
987.787786
999.689806
962.407623
990.940148
1030.171229
988.368209
1005.294452
1021.592838
1016.511646
1046.326293
1012.805187
1034.186060
1035.625673
1019.463704
1001.805384
973.556307
970.309394
1003.959519
1078.186020
979.002455
1005.140979
998.623783
1029.074107
1045.914628
1020.531828
1024.944534
1017.246893
1012.935408
1011.310316
964.263994
976.516580
985.787552
1021.722160
1035.802934
1017.820235
1048.250148
1061.596946
1040.626898
1023.150026
985.021055
1019.914778
1052.617477
1056.537126
1049.693521
1007.503216
1007.648454
1004.706352
1004.809660
1069.786007
1060.797956
1064.006839
1005.568566
978.784157
1018.500573
1052.363292
1065.936863
1005.009062
1009.926023
977.331823
957.676510
988.491902
976.003489
1013.948990
1001.794478
985.601087
944.624803
978.163998
986.487291
979.435583
966.512174
1008.449892
1027.928694
1007.914049
982.116125
1015.605116
980.017029
937.611893
958.102568
939.043463
983.206040
1004.579249
1012.862550
972.625042
1022.764528
1042.453724
1036.203079
958.110707
1024.028659
1012.190604
1018.502503
995.549545
993.507885
981.257373
981.530492
1000.864308
974.344471
1020.621449
1040.982224
999.678539
1032.114342
1026.913509
1013.167323
1061.566575
1017.560892
1009.473245
1002.979627
1012.776925
1078.906523
1080.553440
1058.794253
1026.336583
998.478644
993.030535
980.101654
1036.034032
1011.496682
1017.941109
1031.907902
1022.110368
1059.554444
1028.199673
1000.613769
978.946815
1005.313081
1026.881234
1027.112469
1030.497720
979.545676
954.551180
968.597275
968.109910
970.452237
958.299573
988.872971
957.676623
998.762490
1014.215832
1004.718435
977.002929
1048.495785
968.321322
1017.607643
1023.888828
1023.226700
1060.553646
1021.326982
974.744236
1050.317104
1007.650816
1025.142639
969.036606
981.513395
974.173130
978.779709
994.561671
1038.232375
997.204656
994.014946
990.705202
966.542057
987.200447
992.725745
970.156473
979.183271
962.605405
1014.970785
1001.369640
966.582932
1046.425093
1025.132812
993.070894
999.051023
984.316815
984.851487
979.861617
966.886116
974.359581
990.353762
989.954670
978.247201
978.897237
989.768481
1064.583344
1011.900123
1020.027469
1026.270029
1003.840334
1005.400064
1003.852361
991.710957
1040.505748
970.217299
1003.567425
1014.415621
981.863763
990.770204
978.669139
964.409533
995.623057
960.523820
961.544468
941.165926
970.112986
1030.838038
1010.371141
1077.030365
1039.571768
1021.190187
1011.462188
1008.535571
975.627166
1000.898387
993.804775
951.074935
969.207722
977.714402
997.204052
1030.131265
1006.351628
954.966562
1001.260674
979.553883
958.932061
982.400328
993.351836
987.054927
1015.129259
978.385437
1032.201280
1032.952493
1049.548608
981.097201
976.085322
1033.225576
1005.354330
1072.580179
1064.839250
1000.384523
996.836594
977.763304
1032.031356
980.452416
941.848133
948.191539
967.086834
930.825075
941.083726
946.069758
966.984925
956.179641
964.842273
991.470470
1010.651458
950.116898
999.891113
970.467275
1004.437445
1016.179917
973.618417
1018.444118
978.987455
990.953786
984.081143
1005.761558
984.478350
999.179214
1004.065877
1010.729293
1022.296235
1042.386930
1035.828892
988.633083
1021.812470
987.491458
1029.275274
1001.212203
1025.447596
1034.705152
1021.152341
943.996646
946.579065
994.264503
977.007376
944.285572
952.500922
969.718494
1013.850937
1019.092077
1043.733555
1004.928607
1024.796269
1050.989338
1025.179629
1014.609407
1018.408143
982.516599
1046.794953
1005.168639
1044.934690
1042.909924
1030.844045
1013.120245
974.384177
974.411089
940.106157
945.552242
1002.949962
942.936182
959.023939
999.448417
972.191082
964.609735
992.269335
1009.947476
1023.079356
960.054704
913.691882
960.314194
934.861691
934.980211
958.735086
900.238183
927.458030
926.086068
993.791039
1005.282794
981.306830
1013.567569
1022.303188
999.322504
1011.917716
1024.210070
1023.257448
1013.434743
964.621546
979.255441
1001.174941
943.735519
987.691376
1010.258831
991.218532
1008.495308
997.956666
982.025073
1042.893345
1043.688997
1050.272926
1004.351254
1033.632301
1024.858651
1002.014300
954.449323
963.456670
937.303827
1000.719420
955.278814
965.759588
993.298609
1026.806650
1023.058061
977.971800
1018.416363
1011.115917
1021.534396
1011.952551
1029.741785
1038.663129
997.929264
1027.460041
1044.049098
987.552284
999.898922
987.144680
1002.607159
1034.265258
1095.804182
1031.861243
996.309328
975.012715
951.679570
957.309589
997.698475
973.193521
991.070033
1000.306164
954.108746
1010.218828
987.172244
938.567832
957.684409
1033.435552
958.958863
966.239887
956.858442
978.747491
975.986002
984.258946
1005.450652
963.227535
976.351467
967.243807
996.267237
1009.982348
1014.553947
1041.274008
980.870172
1030.561599
970.047827
965.545147
994.253398
971.563702
974.753376
985.881815
972.902990
1021.823140
994.014747
1021.647387
994.355983
1016.468497
1041.938393
1003.851655
1029.073783
1026.457293
978.666742
1029.443040
1004.666268
1066.630760
1053.133102
1074.346901
1012.317708
1021.120630
1023.228739
963.484311
982.906528
1014.729530
1030.098647
1049.781979
1011.722164
1027.509582
984.998386
1009.926070
1003.265649
1020.873669
992.135964
1006.066776
1019.037381
978.210800
945.373522
954.161702
945.237665
972.785569
957.006233
943.047426
960.324483
988.298501
962.037776
975.581150
990.529119
1009.765950
1011.733259
1056.901920
1070.226817
1047.463065
1017.953718
1058.150700
991.596129
999.209907
1004.758074
978.354944
980.148703
1014.853018
992.693948
1016.691570
989.727084
1036.751639
1003.117147
986.180915
992.853949
1002.235075
1024.960686
959.653840
983.921645
963.710827
951.094905
959.890964
962.068114
941.384934
966.011151
971.908476
1038.086529
966.151798
977.929481
1041.030808
949.559116
952.664778
981.700796
1003.838502
1040.303568
993.802299
1042.607149
1030.590305
1009.453582
954.674145
974.683725
928.246914
962.690689
964.376921
1016.142510
1021.084389
1028.205144
1037.371049
967.322611
973.392062
1017.764159
1001.791956
1010.028696
974.799039
962.492753
968.208961
993.260306
960.737485
985.249305
974.302677
1013.854732
1009.890202
1022.123571
968.289128
975.430887
984.366558
971.731358
996.929036
1019.922596
954.733273
978.038395
996.441719
1028.571795
980.350426
991.448297
978.040270
996.969473
999.753950
998.992575
986.911551
964.270583
1014.281934
1037.446337
1023.969705
1012.888200
959.541247
977.696061
971.659263
960.563698
963.705033
949.576025
955.790746
1008.840281
972.608769
996.896966
1019.309588
1020.318509
1021.108576
1028.978463
1000.616778
1002.184094
1001.036809
999.934534
1016.404904
1029.104533
1030.767412
1006.045107
995.779213
1010.922467
983.854567
985.964871
977.976371
989.284459
1025.989213
1004.976200
1019.840880
1013.505043
985.109613
968.226483
1039.599041
992.953663
979.820295
969.554683
1000.497937
994.852140
1032.292028
1015.941553
913.160435
968.639166
944.629926
975.695964
951.084834
993.417987
987.036987
1015.647616
964.113574
998.630321
1008.292729
937.479522
990.557080
925.931497
937.914006
978.731034
973.975285
1004.392343
979.291154
1040.113601
985.779686
976.825616
963.115572
1024.634917
994.359837
959.607993
963.968537
980.233238
967.578062
1020.431336
1022.869943
1033.068268
1070.600448
1021.649887
1007.294552
1015.113314
1014.627634
1045.845744
995.626946
999.114628
1049.460793
1007.971260
1008.986574
951.726244
1024.413555
1030.785166
1050.273401
994.056509
992.278621
967.704782
971.050462
1010.421958
952.843365
999.700385
1021.318416
1035.472341
1022.408897
1001.417966
1022.575770
1039.251693
1026.457928
1010.254232
1010.926001
1016.279925
1033.101467
1055.852106
1023.515916
987.039699
990.963264
1001.849156
1001.789954
979.009113
1012.461392
967.753411
991.061485
979.425228
973.723836
971.855265
1023.895250
1011.464941
1006.824836
1027.045079
1028.099438
1027.630117
944.108027
1012.913751
974.661695
971.636834
1023.447967
983.933595
990.194776
990.901785
1014.951180
1054.338293
1047.748352
1051.421516
1010.117754
1003.253556
986.906875
1084.249823
1021.727287
1007.557752
977.577092
1012.387390
982.468082
1040.967827
1040.905749
1024.644787
1060.203570
1073.181288
1030.551104
1029.323622
994.740670
1013.044503
1041.091843
1040.980098
994.780351
1003.435339
1018.726211
998.255648
1004.790864
949.645755
968.752491
989.942880
945.319995
982.294191
975.894036
986.943368
963.968668
998.755461
984.316285
1004.423315
956.498080
994.221801
1005.876250
1010.021560
1040.993979
1031.977037
1049.734092
1004.265677
1019.566815
1016.311050
1008.902180
960.028977
1071.743174
1031.756556
986.091311
1018.942919
1042.872698
1045.330355
1039.118335
1019.431239
1037.119671
967.879246
1006.130521
1012.583662
980.905338
1024.068832
1100.078199
993.109225
1035.227628
1022.869807
986.621148
1015.538347
1013.890723
1030.879638
1013.471493
1026.004793
963.747417
977.185454
968.633137
971.027241
991.721877
1025.047412
993.886701
979.814572
1013.188356
1089.086996
1017.942661
1000.694539
980.414089
993.368148
947.310138
1017.057651
1042.206239
1056.446559
1028.767273
1036.382768
1056.221894
988.460755
1002.179021
1037.264869
984.607037
984.933271
980.076454
1001.113950
1024.495670
971.879199
998.842855
999.190002
1010.511467
989.613862
982.742152
993.374318
975.955191
1026.802525
1056.625948
1020.199972
1059.026668
1040.149038
1025.874383
1054.112816
1032.125018
987.858035
1022.680800
1031.607403
1013.987816
1024.540008
1017.989626
1037.845281
1051.054384
990.659968
1005.249109
950.522712
1035.736297
1036.526823
1002.478947
988.450836
1023.606216
1021.279268
1041.941248
1074.253184
1035.850476
1020.923715
1060.736562
1026.501238
1033.033223
1005.547883
1045.995644
997.332870
1026.588182
1040.948489
1002.929162
961.703257
999.714159
982.234988
1000.161791
970.435200
982.899577
1010.686178
1037.805260
1008.993946
1027.799252
1002.540774
1007.471105
1005.836988
970.552004
1009.765657
987.489919
1002.593525
1014.973051
1011.072787
1003.326703
1024.021414
1024.440800
1029.522541
1014.459072
984.909614
989.448751
1045.326993
998.983182
983.897662
1018.942558
977.484593
988.500452
1004.566842
1010.597490
994.719178
1002.291190
1014.289056
989.256430
1007.337506
996.448939
980.069669
993.297358
990.769731
1017.567032
1007.531770
991.810644
1003.223735
983.050079
995.235237
969.277727
1001.261708
1022.222309
988.899246
1008.311649
1021.794006
966.510178
999.269415
990.608484
931.213286
980.334667
975.874436
960.840230
984.817779
1033.650454
1016.498619
985.646031
974.884595
1025.397988
1012.928617
1025.018457
981.905376
984.285010
960.277474
984.085688
973.710609
992.168090
1051.679347
1025.316519
1003.996092
1007.522492
1003.937553
976.560149
1051.967883
1047.561031
1016.483949
1009.220147
992.275704
1012.915863
1052.436118
1017.470663
1020.268094
1047.051590
1043.519283
1018.452766
986.519030
996.485951
1021.406743
1045.152883
1032.751817
1034.008354
985.986277
1043.356295
1023.852887
1026.946608
1063.330562
1031.285578
1066.109264
1028.413636
1027.452728
1034.026484
1029.804363
977.845705
996.831565
1013.623110
1006.743004
1043.886754
1049.133423
1020.907802
1011.852259
1030.010799
1049.295805
1020.345996
1017.506503
1036.785624
1016.779307
1000.531892
1007.469308
1008.892008
993.067507
1002.182621
1017.752815
1029.328286
1031.593190
1013.329052
1030.957482
1005.010722
1013.469157
926.953402
987.873220
1032.092565
1051.634035
1053.168823
1021.943135
984.252870
1015.769352
1011.803216
1016.766340
1040.896149
985.184779
972.804463
920.334262
978.975086
984.754408
1001.923681
983.340531
967.897054
995.215815
972.327739
966.455155
1015.965257
1026.888623
1016.998068
991.131184
1011.804827
1014.271718
996.005233
972.770485
969.278428
983.534206
954.525489
1030.560321
991.097542
1056.092045
1082.846498
1103.234962
1047.906474
1049.592707
1064.662385
1017.645816
1056.046915
1038.547908
1031.191867
1056.247046
1048.539938
1028.288172
1004.757716
1008.484775
1028.716808
993.907153
933.251406
968.002102
976.308936
967.178446
978.629927
926.713565
981.999183
1002.496179
1052.530328
1000.210444
1007.871236
1000.581959
997.419217
1012.648676
1040.618427
1031.565766
1071.188934
1029.770416
999.672609
1045.036652
1051.536016
1060.948758
976.364222
973.809915
986.371991
1065.189872
1016.110218
1005.403408
974.674301
963.175121
985.272059
999.030337
983.991040
998.809430
1007.005846
1032.963128
1007.478036
977.325845
1008.251226
991.368270
967.006038
995.291669
1031.395339
1000.353465
977.028886
961.019270
965.426666
983.920984
1006.024562
1024.435762
1048.568862
969.386054
1037.296669
1052.659723
996.760450
960.297856
991.276709
1031.851893
1010.155361
1016.226799
979.425974
965.083580
1018.930852
1004.073311
1012.603934
1025.973476
1023.823158
1031.825178
971.998690
994.711824
976.095624
942.637372
961.403465
951.838200
1012.008944
1018.758531
1005.258351
997.804514
1008.937301
1013.792073
977.813041
945.250545
977.756612
991.536763
1000.935248
982.148058
1013.423467
974.474220
1050.308353
1013.758037
1077.511228
1055.405497
1082.278139
1079.642398
1011.293280
1035.756630
1033.129996
1021.242492
994.718883
996.103280
993.838415
958.001037
981.448733
1012.447054
994.341001
990.605294
1015.641277
1090.677560
1060.981240
1060.416168
1025.422052
1012.869377
1027.569639
1020.071105
1032.780823
1015.540459
1021.314310
1006.328354
1016.820673
988.542613
1030.652735
1070.519026
983.787566
1036.267307
979.097051
966.634845
982.294796
1011.175087
1042.270077
1001.215169
986.187324
1030.484721
1001.094015
990.750273
1007.645801
1041.259631
1070.439389
1035.485756
1050.391462
1023.091857
997.961664
1049.188957
1047.362906
1032.984806
1015.698061
1010.022343
986.546554
1015.639179
1004.549595
1007.600433
970.852937
949.428972
986.087617
983.252893
1032.148097
996.568646
990.406260
1016.697659
1010.135485
998.953915
1092.119314
1081.918034
1035.148558
1006.909308
1018.745319
1002.202326
1040.535471
1025.620268
1019.160255
970.288177
979.292632
1001.970230
991.191739
1014.561230
1021.585505
961.112473
980.191811
923.492796
937.331086
977.519403
951.152136
969.279328
960.623498
1022.872475
1041.714402
985.304989
1012.553907
1025.966904
980.987135
1017.690933
1000.197272
1015.565363
1015.858511
1003.793320
990.694074
998.779521
1003.977929
995.238952
1014.829586
1028.972932
967.521942
953.518021
961.337546
971.194597
964.056586
985.845481
968.354058
975.465014
992.175142
978.219733
1036.244906
1012.045036
1009.695320
990.110336
993.351274
1006.709129
1035.120393
999.389540
989.004374
1009.310261
998.954338
1019.792498
988.538572
1036.609539
1010.578924
1067.041034
1062.434577
981.295821
965.643753
1034.714751
1041.064354
1004.013057
1013.925111
1030.326735
985.343628
1008.942817
1009.595353
957.445384
989.494971
985.470102
1040.819844
1025.393081
1010.190006
950.574357
985.121085
1001.749560
1027.582336
1004.696615
1028.345896
991.180098
1014.582791
1023.693060
988.164220
997.690868
1018.822573
992.837370
1008.379491
1001.589006
986.772185
941.193571
942.415095
971.891657
1011.082091
1035.542620
1043.113289
1057.030799
999.812233
965.997612
977.792719
1003.785060
951.105532
956.183382
972.064741
974.154367
962.203665
956.087655
1000.649208
1026.834441
998.828285
1022.240011
999.827621
975.526309
1038.887625
1011.648100
1029.616268
1086.945820
1088.513997
1050.989964
1107.871092
1046.159984
1056.345359
1042.876169
1033.906824
1002.726073
992.728826
1038.433482
1041.396586
1019.657730
956.725709
998.552329
1016.940156
1007.006163
996.294818
985.141817
1035.801898
1033.279001
1024.353011
990.354537
1012.267748
1056.886996
1018.969975
998.612013
1034.640828
1025.748537
1060.898435
1040.373917
1030.738008
1035.905991
1005.992632
1003.335609
1043.619040
1000.874463
994.182561
995.862414
1006.761661
995.786656
977.382533
989.991776
1003.211027
1016.644945
1009.906183
959.170663
978.290992
993.736709
992.192235
1005.689709
1011.094587
983.898502
1025.374833
1057.550678
1007.533426
1051.630547
1034.542294
1023.302096
1037.293199
1006.802990
988.072511
988.910138
981.104015
1006.679532
1042.648581
985.910546
999.332627
1077.993861
1072.457163
1070.586477
1044.099556
994.262908
977.725569
970.726426
1029.012864
1031.810981
1044.694018
1047.254639
1000.284148
1009.334371
1028.313660
1039.464157
1005.523768
996.668915
1005.119334
1023.445666
1023.960897
998.379395
995.044861
1021.215655
1029.043941
1022.238398
995.729041
1012.212591
980.528603
1045.202458
1022.469484
983.094055
972.495923
970.502977
950.450950
995.302976
1005.794200
1020.239210
991.855382
1007.541863
987.008792
1034.593316
1024.506185
1064.706469
1023.654547
1013.139326
972.918267
981.301640
955.905194
982.096678
1010.735852
985.262130
980.100034
1001.644003
998.336931
1006.248320
1057.130953
1040.377926
1024.145905
1066.264894
1024.807422
1017.266987
950.424785
960.436410
955.795821
960.172127
988.690273
1076.561611
1030.897766
1066.120077
1045.368345
1014.744698
987.464559
1007.934328
992.211746
1072.037297
1073.071171
1019.785061
1002.354093
1038.536964
1053.332133
996.168103
993.937883
988.713112
973.603878
1001.798859
977.435743
973.757781
983.699221
1008.096994
1061.667663
1008.398269
1025.486755
1062.988622
993.405285
1034.366339
1051.006850
1054.765720
1030.283483
947.754603
1013.382221
1043.320628
1059.445909
979.459346
958.492955
951.240187
977.200788
954.088155
1033.346175
1015.327854
939.645562
1001.235385
974.348845
956.348514
977.138607
974.455639
995.103499
977.425474
1000.688434
988.747387
989.437564
995.248159
981.097326
979.177322
1013.005198
1019.226921
998.973651
963.332324
1015.605868
983.842152
1010.711490
997.382463
983.008483
972.676807
973.710215
965.019050
985.829452
961.675217
918.935778
918.779765
979.889158
989.994082
983.866050
972.698835
1003.392435
1000.616972
1006.545075
1031.226865
990.902233
1004.855119
1011.619256
995.248213
987.622342
1007.339935
1007.950486
985.466278
1000.796602
1028.941229
993.147360
1030.394692
1006.905322
971.347338
952.777520
1025.460170
1044.206015
1057.036168
1052.131443
1042.987365
990.070146
943.285901
1017.997596
1001.120791
1008.383819
983.892451
1032.768583
988.676089
962.377731
936.144276
986.316282
978.005244
1057.008832
1033.585848
1025.903423
1019.714843
957.743695
1012.061233
1028.669885
1001.919868
972.994344
1000.535291
989.734324
975.375341
1000.045121
1049.543289
1026.153604
1056.246868
1062.475949
967.939239
936.138610
1005.480449
987.337377
995.995196
1019.917574
963.643691
956.926068
981.349796
995.636823
999.293589
995.145018
1028.695420
974.555743
995.704550
939.918217
946.739950
989.471178
961.967513
950.866696
952.802821
989.952659
999.936996
1002.273808
970.439579
967.093338
949.043109
951.852945
993.291428
931.375209
949.820234
982.430542
1027.391093
994.765219
961.843558
963.426079
960.097402
991.070943
946.865778
1024.203966
964.824546
982.230637
984.536260
966.120518
957.162191
1032.671049
1014.055019
1035.441666
1016.862453
1025.845146
1064.504654
995.057918
1054.505391
1051.586368
1044.313409
1020.404965
1048.372082
1016.153822
1064.741430
1026.053638
1051.243802
1057.476715
1027.178757
1034.899419
1010.034795
980.924893
991.349893
968.642897
943.514602
968.374290
998.606364
961.007986
977.797836
975.625246
1020.436071
1023.827335
1020.978460
968.664810
1036.111416
1025.791100
1034.431675
1010.242876
1043.712601
1022.140941
967.559542
949.331316
962.366318
945.954442
965.077443
997.441467
1011.876395
1061.155902
1063.427363
1050.215345
1000.093303
1018.177753
976.702338
925.363237
956.960723
993.335801
954.971663
968.687445
974.154330
1007.534260
989.838202
999.335841
1001.601439
1042.878543
1011.463418
991.602192
1030.403431
1025.182370
1030.802271
1027.621934
1076.517986
1074.811928
1004.211923
1043.044429
1037.829118
1046.115265
1024.228777
1063.352126
1029.959988
972.491773
970.708873
1001.833700
1021.549248
1012.328460
1015.884158
965.679553
1032.307738
1034.174070
1021.738841
1034.416106
1039.413481
1038.878968
1027.451537
1021.313046
1001.083298
1034.958574
1057.599171
1035.861189
1026.587648
1031.325021
1044.777814
1074.133489
1004.744541
1035.585673
1062.071161
1033.880038
1037.895148
1020.870842
1038.793473
1038.629215
1025.446086
1009.671077
1011.066503
971.369501
1012.438580
1063.001860
1100.424451
1108.285835
1015.393047
1000.720384
995.886016
1002.130061
992.083482
998.977747
966.778511
977.030812
997.063132
979.655078
977.505162
992.232880
1015.144735
1036.416262
1032.291256
1025.688428
1015.184725
1017.134861
1030.303247
1025.715905
990.657901
1006.231137
1011.517281
968.588242
1033.196456
1044.782026
989.779921
1023.436441
989.824476
946.704177
985.781295
1014.954588
1052.083034
1002.812932
1000.621637
985.285963
1007.182393
1009.731790
1036.462191
1030.380771
998.021517
965.312746
957.517899
893.952017
947.531878
996.972454
973.470723
960.454490
1011.040661
1029.812109
1027.347352
1005.162249
1009.728318
983.262046
949.397431
961.599376
1000.959612
997.065543
990.258870
945.774971
941.114261
983.595404
979.443381
1006.430536
992.638663
1002.434564
999.517691
951.730697
977.883054
1029.287070
1015.300522
1004.976980
1000.344716
993.234376
970.692467
1014.082429
1046.689395
1059.856453
994.603726
979.560618
988.361475
970.145456
986.890202
993.507038
984.981001
1023.057657
964.150653
1010.133049
950.452479
978.423266
969.570909
972.479246
1047.307080
1000.787116
1015.735742
1004.648604
955.759163
1023.552928
990.304667
976.387829
991.740018
963.374892
972.259120
989.948218
991.199810
1072.538895
1052.553174
1035.967283
1009.548203
1003.807234
976.549277
1018.776171
925.073996
982.805866
979.865381
980.841254
998.891602
1013.500643
985.605123
1027.141831
983.696109
988.097477
1042.564294
965.457627
984.584173
1033.348868
989.441078
1025.756824
983.217599
980.510883
962.694455
948.582691
1011.874115
1035.015828
982.869036
1005.386413
990.311182
983.185545
994.462804
1000.042581
980.254110
966.638401
1007.363301
1044.371792
980.416006
985.567603
1001.580829
990.710163
960.891963
1047.334931
991.431129
1021.325657
1033.788202
996.607518
1006.096421
1015.364835
1002.540074
1001.244354
1013.069322
967.777523
1025.063504
984.276588
1004.434384
965.425061
983.882006
1074.022112
1005.355744
1017.440042
1011.924814
970.365446
963.189728
987.149212
971.382586
929.101340
897.420651
927.721678
915.121127
936.616902
970.874048
976.341406
982.008446
984.795168
988.822471
962.255195
972.318927
973.155919
992.071757
998.548338
976.885743
973.896283
1034.697729
1062.761147
1009.057662
1040.989559
1017.875747
967.329030
971.972821
973.754399
1019.237590
1005.676837
1021.491040
1059.559684
1034.311453
990.806827
992.742667
977.704471
1026.639498
979.176928
1021.253966
1045.937493
1053.516880
1030.020579
1020.208614
1021.746610
990.749327
1041.122581
1053.370484
1023.117695
1069.872773
1053.495795
1060.239190
1028.876385
1038.799240
1015.331487
1028.142256
1025.352483
1053.977806
1013.856509
1003.163598
1019.525233
987.360171
1017.364115
1017.196287
1055.809349
1021.407632
1001.467162
982.264989
1004.458971
1059.000203
1025.371943
989.649493
1059.835751
1000.719779
969.158383
992.594657
962.938585
978.530425
935.680143
981.844048
975.936131
960.848625
974.261151
955.130197
1006.615441
1008.151417
1024.200698
972.667070
967.080263
969.437506
970.999745
970.720363
980.191668
968.643769
978.819967
989.817322
999.669079
970.535595
1014.078368
1003.655090
1029.098897
995.491117
1003.641850
1045.962404
1059.958106
1034.486444
1058.648014
1046.754077
1027.525968
1050.305835
1021.600721
968.281276
1013.164345
1002.521361
972.406897
952.937478
968.203039
1009.061760
993.539489
1000.571310
984.013408
1002.202468
956.302222
1018.493256
987.651723
974.046487
971.577556
976.940978
992.184485
984.586518
950.659580
1010.744330
1026.344784
993.306857
1023.422442
1006.202054
1054.182863
1059.487486
1007.828864
967.498350
1036.158842
981.864591
954.457986
998.668352
974.358881
965.599630
971.825268
1014.118729
1008.180619
1016.816476
1051.506143
1034.619400
1023.060891
999.357271
990.971339
994.808408
961.186750
932.747596
993.195731
976.066107
970.941475
949.369200
944.206074
965.465531
988.603107
1027.450568
976.456086
990.409075
1028.232397
1038.037998
1033.801161
1028.773666
1029.793651
1007.875887
990.169071
1009.658469
1006.323296
995.665877
987.651710
1021.698046
1038.931773
1054.608138
1028.138750
1040.852722
1031.864819
980.914863
999.714653
993.033689
997.595484
1002.951168
1037.881789
1057.265532
1016.106621
1006.064349
962.675864
996.937117
968.542820
1026.244102
971.828762
991.379813
975.586504
987.611283
1010.090290
1029.071744
1056.918339
1095.617460
1031.278888
1028.555123
981.116376
968.610488
952.583680
944.253192
938.319622
991.148647
974.944211
952.816882
985.895392
985.591995
985.557168
1011.458244
1006.317978
1053.253656
1029.141789
978.545877
1014.177292
988.501490
979.647583
971.037180
974.082859
975.020056
1007.668503
999.083007
1011.448972
963.925117
948.838709
995.527287
992.783105
1011.383093
988.714373
949.609107
989.466491
1038.178258
998.491122
1001.772037
965.833510
957.387687
1006.450699
969.340554
984.938209
964.871652
964.041629
966.018977
919.204209
979.388678
982.667976
1010.899685
1011.726742
987.319567
961.980957
977.637832
1007.334514
984.234742
998.311192
966.162089
951.459347
963.265705
1020.010187
1034.497425
1012.157861
1004.984336
1019.489938
987.207802
1014.105290
1029.092645
975.093627
1029.021160
994.997663
967.560265
977.862585
1030.222972
1018.034129
978.518820
1005.814733
1049.155531
994.316071
960.362347
935.445304
993.455689
1015.955160
1038.092981
1036.794709
1049.258640
1016.243761
977.420351
969.760888
941.666167
997.723618
971.584719
977.459328
964.474167
975.411085
1018.642918
1038.240091
996.828936
985.297258
1009.903895
1046.471322
981.130512
1001.466147
976.326940
1026.203901
991.709009
1031.121700
1068.552345
1080.726680
1045.325482
1050.038523
1089.873513
1012.364877
1020.762440
983.637549
993.130618
992.974250
939.213193
974.209761
978.368220
994.859781
979.171631
980.195716
