2305.356228
1786.161465
1188.055825
873.409301
746.320494
637.945894
602.321719
543.444533
525.639322
513.044519
492.361341
491.454140
494.699280
496.725292
488.661561
491.322502
495.533632
495.436085
494.569564
494.367121
492.935495
489.554130
484.554262
484.298669
482.005041
485.669284
500.853188
501.033947
497.245088
495.939366
494.966407
502.458615
499.457980
487.325514
493.603271
497.068846
497.725746
497.928453
490.658752
500.224426
499.547186
495.343759
489.407724
485.648369
488.020730
491.495076
496.467077
496.742041
495.096775
496.700032
489.999468
488.607375
488.309167
486.288635
494.265391
493.887192
488.775419
489.134198
492.516183
491.416961
496.300839
500.327390
494.076675
497.405491
493.913386
487.927289
488.769168
487.899653
484.232987
492.452649
488.060429
489.654339
490.565532
491.544768
495.148581
493.662496
488.038747
495.265564
493.201450
491.935799
490.047032
496.557657
494.114600
486.569605
492.133200
484.854171
487.664327
488.311938
488.794383
488.537145
490.149118
486.160997
492.864167
491.950160
490.845454
494.757796
495.236052
493.393277
496.284193
496.403247
485.417727
489.497564
495.357494
486.839325
490.649318
486.787371
486.106685
488.475289
494.509208
496.988270
493.626349
487.285176
487.322657
485.989659
488.485480
489.944690
488.333298
494.044465
493.554227
487.174181
486.038756
487.265123
488.037011
489.591218
488.221821
483.275049
487.492975
489.550175
489.384113
489.694068
489.525129
488.960773
490.449702
490.092083
491.949727
495.866753
494.192837
497.133298
493.371311
500.578905
504.312689
504.631543
497.985824
501.605087
495.461744
499.368330
510.652799
495.180991
493.274777
496.503342
495.052627
495.795226
500.164779
493.281057
493.322902
486.696462
492.409949
495.153460
494.964194
497.344968
500.943116
490.203318
487.675071
491.923117
493.885953
492.801698
489.713519
494.592805
494.158974
489.570129
485.858913
490.402884
486.447331
490.893513
502.183077
504.125330
501.542320
493.640477
500.701532
490.833970
490.218434
493.496461
492.296937
495.617012
500.959806
501.645734
500.813864
487.969602
491.873095
488.426471
492.171563
486.180012
487.379710
491.238504
489.016266
488.408256
486.599439
488.377604
491.347506
488.119064
493.242713
490.019669
494.065064
489.593770
492.339176
491.419844
491.780946
481.216630
493.078707
491.372915
492.980379
484.968864
491.554757
494.487821
494.169637
496.385005
497.407372
494.052630
495.500981
498.016610
496.821226
494.880402
486.436149
488.328161
487.641009
491.863149
489.647863
485.802913
499.603531
494.871702
486.744254
498.830092
488.642261
490.333982
493.946775
495.177701
493.880138
497.808169
499.827702
494.007451
492.827317
499.162658
499.142589
493.947660
499.501746
498.004689
485.619806
494.530392
491.575229
491.343573
488.670476
493.111009
504.615625
496.461892
495.320508
494.460573
489.563044
490.506325
485.030414
496.216613
493.545687
495.742032
503.597867
500.053295
496.683482
502.537086
491.546959
499.822221
498.710589
493.380076
495.530070
497.397609
485.067169
491.177623
487.758936
490.094200
493.959114
489.120089
488.708024
493.905634
489.288466
483.887222
484.914730
488.403875
493.690232
494.637906
490.397255
491.475597
500.047290
505.108988
494.607974
492.610648
490.866358
493.144351
486.634077
502.341410
506.217821
507.538825
502.441802
499.733835
490.860762
488.433174
492.751302
494.919735
496.889008
490.996857
490.861495
491.924283
490.781272
492.442119
489.562486
491.258153
487.807560
497.578577
495.183178
486.282953
484.460881
487.875068
491.940199
484.816914
487.285788
482.612643
486.687442
488.558398
488.183036
488.617854
494.440473
501.272966
499.582501
501.676408
492.391756
486.474177
493.187289
488.685398
492.200389
490.161247
495.980428
491.777383
487.629439
483.915031
491.175559
488.322938
488.072530
500.764361
500.486675
496.038145
497.872917
494.884787
496.674852
493.337806
498.135998
490.855176
494.554482
501.469177
496.463525
487.871116
489.264067
484.874566
492.447357
489.594133
490.053822
491.119802
493.590893
492.770158
493.805226
499.782146
502.069349
494.335741
490.135098
489.928214
487.671860
485.508275
490.359207
487.328228
491.937401
496.475059
500.557558
491.777276
505.883885
495.050629
491.435297
488.772449
488.321972
490.980112
492.473628
488.319016
487.290855
488.860953
499.499488
495.997046
497.230171
492.579036
492.015272
491.367277
501.554440
498.661392
493.697653
501.956053
496.423731
507.048194
497.312665
495.683243
495.940482
496.281572
490.710542
495.906799
494.221533
491.534346
493.587289
490.905375
493.022061
493.247051
487.138572
489.553784
489.654853
490.144588
498.084414
498.439701
491.848303
491.566751
498.533518
501.241010
496.972657
494.353599
491.945720
495.683842
491.423404
491.124888
495.294951
493.621774
490.298887
495.347941
487.337744
490.066665
484.369066
489.354983
484.120677
488.429643
489.768648
495.523210
494.611775
499.393886
490.054866
489.118638
491.984380
484.243161
489.489421
485.554864
483.620036
487.211850
481.064154
484.922570
488.896149
494.542946
487.884313
489.401785
489.649661
487.423630
491.354842
494.462541
495.413554
496.024892
497.912430
486.817342
490.383307
496.456128
501.605486
488.304190
481.328043
488.154993
491.000835
490.876486
493.229968
496.007753
488.357869
494.029688
497.515408
500.842887
499.675593
498.378485
488.952211
489.226365
500.363978
493.284685
493.356973
497.043522
493.003910
490.258675
492.394803
501.941538
490.044804
490.827651
489.025155
483.461382
490.810960
487.800366
487.335644
487.679491
496.261152
501.508282
497.871815
489.400609
486.740939
485.248137
486.423621
487.245608
486.717331
485.611821
489.131477
494.252639
494.833283
498.129511
499.259230
499.346879
496.341416
492.050539
485.638046
487.774972
489.767190
488.913219
499.225751
488.408342
490.681326
491.575864
501.100179
503.178309
499.402590
497.193260
491.505782
495.295315
502.272833
496.383210
494.314788
492.870592
488.894762
487.294018
487.764428
486.965530
489.371067
489.890570
492.317693
494.673155
497.094007
492.965789
493.217991
491.579789
490.722990
492.398227
493.603656
486.620629
488.117169
496.833875
488.377418
489.636859
489.512189
489.242162
494.913960
499.724011
504.454518
503.494080
501.308901
505.092936
498.135841
498.577926
502.614438
499.900842
498.885463
499.424679
492.747597
493.595285
496.079630
487.030944
488.840602
487.676847
488.251124
487.529958
481.759263
487.080477
490.190161
495.628665
495.953148
490.545560
482.775431
487.636639
484.082303
485.589399
489.548510
496.442589
497.014777
494.650133
505.354183
497.789698
490.303983
490.812185
496.024635
493.883867
493.221326
490.349086
491.028964
484.432473
484.441700
494.272944
487.468651
484.947131
485.216697
486.761272
491.897469
488.758281
494.643553
491.810470
490.713946
491.403972
493.411410
492.459357
492.600398
493.157970
496.243964
500.046576
492.795384
490.184263
494.382194
489.930212
484.635055
480.177105
486.909589
485.440774
488.021104
494.298539
491.737708
491.857541
495.066230
489.950490
489.870276
492.305409
491.694293
499.005109
490.675412
490.425503
485.474663
498.217571
485.483553
488.779751
492.429049
490.845357
495.779372
492.126978
489.096125
487.211064
488.869916
489.003067
493.227845
498.118690
492.914113
494.190928
498.840585
493.638309
486.443706
494.522869
490.288924
489.276469
490.311164
490.880625
496.410797
491.068266
492.185926
490.496941
495.311973
493.314385
494.723415
486.368600
489.090653
498.423095
497.035449
493.444208
488.235395
490.422510
489.894422
487.464742
491.835380
493.478826
493.993865
500.750228
495.218382
490.827600
490.489359
493.428112
501.446579
493.544398
495.779553
492.794775
492.003129
494.180075
493.157554
493.924293
488.737949
490.950035
487.817043
484.631102
490.935504
499.455301
501.373313
499.633105
501.214483
497.671286
494.430021
495.359116
493.899445
490.139345
490.101973
501.078865
500.425475
494.225110
490.480821
496.364547
499.752150
489.010701
488.770674
503.104675
491.259086
505.694454
498.268444
498.412070
494.696162
491.079376
493.792262
497.425157
498.170588
492.299276
493.527315
492.415804
495.385230
491.474860
497.168314
491.504729
485.542540
488.992523
506.057950
499.687664
501.980977
502.516017
504.852948
499.531604
491.698535
488.323501
487.076522
483.013668
488.655529
493.330302
491.138621
491.925790
493.173921
497.844556
505.312471
506.756657
492.971147
489.530874
484.803950
486.164177
488.277469
486.463720
494.176531
489.520162
488.329170
489.151236
489.252914
492.789287
495.452911
489.068021
485.125835
483.733999
490.894553
486.603258
483.717456
492.998412
498.869179
493.607341
493.275281
489.411643
480.475427
485.538450
487.507672
487.765480
495.500212
494.893109
495.163797
493.355611
489.083603
489.298810
490.794480
488.205593
494.485662
496.312393
497.188270
494.863937
494.572579
486.984109
505.345396
487.325233
493.524814
487.710466
481.798180
487.270182
490.003159
485.734502
486.702636
488.816185
488.534585
495.425590
488.628535
482.809961
493.676622
491.488218
490.544242
494.674551
500.236644
494.541097
490.636810
488.140002
492.992259
484.719384
483.739400
482.953261
489.781975
492.022815
494.032535
495.053651
488.971813
498.257334
496.271132
491.561556
489.021547
495.624637
486.494323
483.650076
489.859951
494.336612
498.496761
484.042096
489.898107
491.258827
487.202129
492.410072
493.069738
492.700442
494.605492
494.654431
496.052480
490.396676
490.958040
484.583995
491.234817
494.377392
493.184917
491.494663
492.486866
495.273651
489.849659
489.685927
494.523046
490.481799
496.872424
497.951445
490.505757
489.917303
487.447578
491.417465
495.517451
491.203052
492.478962
492.252431
496.527824
494.445982
492.808410
489.135664
489.220883
486.115963
485.762402
487.026668
488.851722
487.725084
494.060277
494.525144
492.534951
490.176813
505.816091
493.761022
492.495259
491.965726
490.915720
494.395698
487.454185
491.356793
488.320551
485.949410
486.129829
492.818999
489.957883
491.439650
488.265250
492.525861
497.010919
500.303103
497.458124
496.518424
495.841529
492.383567
489.825205
498.089949
496.576059
495.472613
500.570751
498.779452
494.595277
496.943077
491.560727
489.474069
499.637041
504.119268
488.017940
490.513467
488.904087
485.789962
486.069614
489.749292
496.016360
491.748384
493.436044
494.012059
498.559113
486.936243
493.346196
493.500359
500.499599
510.192869
497.969301
492.783776
497.794897
499.634796
494.856772
500.339290
498.879197
491.144140
490.292210
492.057665
487.865548
489.194564
488.030616
484.561123
483.634176
492.396667
491.798239
484.220664
483.583759
485.977661
484.258475
501.119124
497.450284
489.060925
489.995850
487.975515
486.190571
484.172320
488.684031
487.735875
489.204532
496.943946
496.309534
494.360099
491.648579
493.086854
495.642826
490.670687
490.219896
490.453458
495.062043
499.004124
494.502437
495.284768
496.599901
491.846573
484.954037
486.558273
484.953047
485.952995
484.746589
499.319466
492.069347
484.710623
488.235793
489.581302
490.337942
492.309339
494.386818
498.305592
496.343943
499.548496
501.947557
492.005745
487.943254
490.807855
498.263028
489.208947
490.382508
486.996166
491.185292
483.884360
488.254528
485.942974
497.646638
490.284293
489.679244
489.425365
488.730967
483.777218
491.776953
491.677392
498.087250
488.367587
493.990430
487.223034
492.849698
490.611536
497.023117
488.236920
484.847207
490.297398
483.492159
486.803971
483.243353
484.621717
485.771631
497.145451
488.937075
495.190586
496.648283
489.187757
486.185324
488.351524
493.386335
489.052503
488.070367
487.968131
489.931788
484.323615
483.215951
486.826330
488.678928
485.423245
484.061779
495.710967
495.652667
490.104808
492.000081
492.251372
486.724511
484.097493
493.850418
491.121006
494.683353
491.787800
496.952739
495.853998
488.149595
491.098393
491.108578
489.272710
495.649750
494.026130
487.736489
487.619520
488.934017
492.311576
484.909171
489.109888
489.243948
489.298624
488.719393
484.350996
484.026057
498.960726
491.481739
483.661005
487.426414
487.773135
489.442043
497.820118
496.355661
501.499712
497.595370
494.183672
494.568620
493.113022
490.432699
489.929205
489.812004
488.953386
493.240270
491.824518
490.244553
492.234489
494.386563
495.673184
492.805664
494.270635
492.848839
485.634609
493.355916
497.120122
497.212917
500.310867
497.516978
494.677602
491.912845
490.213547
492.132414
498.460855
497.305171
496.853215
497.631479
494.526249
492.798197
490.032686
490.350859
496.774675
498.952653
506.400876
504.141134
492.969697
497.760588
502.199168
502.929948
504.316487
502.839054
498.257016
488.705501
489.433928
483.991525
483.902086
484.117751
487.286822
486.249413
488.947037
485.743046
485.300949
485.114020
489.403348
490.685453
492.550917
491.581756
489.999942
501.015881
499.089503
498.784878
489.587501
493.197347
496.814435
501.911804
496.675275
501.617357
503.257173
490.384919
484.925731
488.864071
494.901114
494.793845
484.602748
492.749975
487.092377
483.459763
487.926054
495.829670
497.588929
494.759059
493.556934
501.600193
487.806168
490.006365
496.053000
495.713208
496.317222
487.487709
485.234041
489.708634
491.366652
488.654238
488.515179
491.155733
490.238572
491.722993
487.137353
480.919708
492.219117
492.071490
493.452574
499.091685
494.864379
496.705690
498.468829
495.373377
493.564629
501.773017
489.390523
493.409285
490.915901
487.859123
489.766202
485.295247
486.112887
491.588918
493.307215
485.481002
485.668623
483.101728
487.700571
490.027594
485.995412
487.259184
486.824666
502.783098
499.676120
495.681636
493.315168
491.592171
493.142996
493.346849
496.585914
488.948428
497.901229
495.037567
500.433767
498.256134
493.385078
496.841561
491.941443
487.542841
483.486866
487.143060
491.117160
486.306366
490.876497
491.602522
494.397169
490.433375
493.363352
500.187874
489.537863
489.100034
492.562784
495.663248
491.004165
491.235760
493.155433
492.231922
483.448359
485.254538
487.329867
488.349451
494.719320
496.997660
497.871447
491.166934
494.336480
493.975296
493.157398
491.434200
498.294397
503.267393
490.748892
492.949737
505.435325
508.916977
493.493974
490.806610
488.860464
493.835438
505.015481
491.626609
494.438354
495.263345
494.122311
484.075247
489.143594
490.929218
497.547806
493.570401
487.721792
486.283718
488.803799
490.235833
487.649846
491.507353
487.542233
481.518533
487.080973
497.078255
498.873346
497.980299
498.052233
493.865227
488.779030
493.854780
496.496464
497.799179
495.620200
495.751463
489.098501
488.646122
489.508106
488.290314
491.590740
499.022273
500.118439
493.808981
495.806789
494.119217
496.984455
500.111620
501.608019
499.187322
492.897149
495.448589
498.288159
497.467258
495.455033
487.337628
492.612284
500.121763
494.452171
495.096983
497.605035
498.938149
496.087805
496.958566
495.283035
496.631705
491.120618
488.562852
492.272384
494.653539
490.529162
495.527141
493.074887
496.179831
494.108270
494.161083
491.355197
494.373381
499.292674
495.650746
503.306213
497.196358
497.590564
494.096795
489.352915
488.842712
489.059374
487.285118
492.157811
489.601460
484.167131
483.722196
484.565156
492.858416
487.134160
493.926661
489.686807
487.887831
490.138387
483.323212
485.375463
488.267226
486.565941
494.765624
495.716791
490.499048
489.063226
501.157374
496.584343
493.573097
503.977308
494.025313
492.684960
492.392968
492.479593
498.184157
504.330459
499.525032
491.925940
493.582701
494.290358
502.378197
502.513709
493.769921
492.757843
493.941647
496.768186
489.554433
490.127668
487.821092
490.767533
490.195037
494.582372
490.424058
492.644213
484.340189
493.725163
490.134557
488.277769
488.985403
488.205416
489.524355
493.709288
497.649679
486.655240
488.783132
498.678546
493.448873
494.134269
492.830689
490.554184
488.270203
482.377619
487.450509
491.743833
491.375531
491.637652
490.126563
496.842365
502.366307
505.200340
498.131396
496.172727
499.150885
493.953332
497.834258
493.641820
488.010062
486.988569
482.279904
490.104860
490.299038
492.610620
487.280251
492.282787
488.437031
485.230500
495.179988
488.633516
499.215869
496.160246
499.643076
491.845691
494.742567
494.080963
488.696433
491.176349
491.179385
495.263622
492.185176
494.739078
492.051144
491.690550
495.495761
491.563841
484.262931
488.463885
494.070573
494.787119
494.296319
486.785020
487.386432
486.525225
493.697483
492.428776
502.240390
498.170234
488.370187
486.304644
491.005587
496.286659
494.187579
493.259370
489.524859
494.088411
489.562458
493.415310
494.538715
499.672927
486.455323
497.188621
492.685266
495.029749
492.248939
493.273978
493.629220
496.285304
498.129580
496.537155
495.156690
490.095796
489.261259
491.546917
488.872220
493.908010
495.444606
496.473941
495.724116
499.046780
501.958157
493.901278
489.380026
490.055172
492.325707
496.576285
496.739812
500.207163
495.168089
488.902614
492.742395
488.626960
491.338663
488.574757
489.088038
487.268950
488.785158
491.558851
488.426699
490.257408
487.127296
492.219108
490.975271
487.440252
491.651811
492.925136
493.774622
494.160182
488.966415
497.256359
493.868694
498.362705
490.737616
493.254081
493.839339
495.663110
506.013271
499.105919
490.982949
491.278394
490.487975
496.940082
493.271740
494.028026
489.962987
488.425167
487.018330
489.382515
481.534770
485.971529
492.623420
489.458519
491.885436
492.393322
490.590889
487.886481
491.851817
497.621283
495.025525
489.073551
492.301614
494.225914
490.886497
493.292982
495.161406
489.885004
483.007576
492.263405
491.381713
495.047534
488.761601
489.329631
493.515490
494.866748
502.978765
507.955212
491.619325
498.763803
497.788717
501.464767
510.183829
516.699066
516.697062
507.968684
498.262694
499.620181
491.473052
486.677903
495.874729
493.361123
491.872710
484.286119
486.436799
486.596321
498.053869
493.879967
497.903588
499.776840
491.690467
494.615007
495.203322
487.859111
483.865292
492.077815
486.796452
482.700893
486.840402
484.735420
483.531017
495.372663
488.909556
490.498909
495.979756
488.970336
497.704871
497.303108
492.219009
491.173665
493.445466
493.315956
490.434552
492.881053
493.033415
491.538290
490.295219
495.339734
486.350585
485.678737
488.636187
495.202224
496.715188
500.198452
494.298270
496.297904
496.212959
495.762461
497.244721
495.264187
501.511817
506.289299
496.501896
495.994199
491.661416
493.435064
490.348615
497.606430
500.098363
504.092842
497.254493
489.865796
483.598873
486.577285
486.571427
493.085482
493.364688
491.472921
489.963409
491.403658
489.207576
491.053585
494.432460
497.434808
498.490236
490.654596
497.498809
499.734824
499.243165
485.581472
489.652723
485.476255
491.792283
494.512726
491.379257
491.028898
487.976736
489.145691
488.803550
497.345233
494.259800
492.952840
496.457977
487.765326
488.986746
492.403796
501.308349
485.300815
490.701012
494.224837
499.325311
488.841440
487.913902
488.483378
488.688355
497.331096
492.741935
490.873423
494.262490
497.252252
501.411035
498.903024
494.059751
489.943190
499.041802
499.828765
492.515949
490.348531
497.163646
488.009653
491.754380
489.543265
498.883500
496.637059
494.884970
489.487558
494.761144
492.228660
493.804733
500.576860
497.374160
495.450796
496.013965
502.900184
493.514515
494.767720
489.962086
483.972277
492.154115
487.832093
488.705769
492.906684
494.193000
500.340877
499.739252
504.089607
493.531810
493.715774
495.901526
502.860766
504.002818
501.790528
502.270927
500.605483
494.497986
492.786505
491.388139
489.207352
498.322538
492.056917
499.758443
491.494236
492.829031
491.469331
495.394772
487.999775
488.624998
489.784367
489.411978
495.095448
493.068100
497.672326
489.760350
497.720813
492.121051
489.079527
487.114882
487.965695
488.232105
483.942460
485.137613
489.944180
491.704127
488.221284
489.240544
492.411505
492.281328
488.344548
487.846506
494.369348
498.304473
496.927867
489.661782
491.234702
494.403514
496.683790
496.974566
496.637234
491.775794
490.723583
488.661536
484.944363
487.462162
486.342056
485.655879
489.121160
494.057230
493.332583
493.241562
504.150610
492.198283
492.030597
491.621709
492.322570
496.097585
494.585197
487.410215
484.401834
487.026680
487.457422
487.989778
487.536240
494.444839
493.278637
492.131013
494.307804
489.803744
491.152878
497.460146
485.114483
492.464251
488.660134
497.131353
495.947593
491.550314
492.456229
488.645074
492.717072
491.442609
493.980048
494.667757
495.080345
496.776505
493.223908
497.871328
487.090834
491.576535
485.552771
488.979668
494.783819
494.492549
490.769293
497.436872
488.492150
483.496649
489.899786
487.354863
489.189849
493.117739
488.340886
498.028786
497.338252
497.345374
495.410093
492.218237
503.660553
508.535695
499.621003
499.436424
497.449459
492.582873
483.668518
486.293774
490.959923
491.922381
490.773035
501.113582
503.147195
495.155885
494.218513
490.214231
495.762432
491.036792
488.299663
486.466125
490.337993
492.516935
497.796427
493.192560
492.372445
503.405605
500.682996
499.714956
495.430036
495.642505
489.375196
488.311110
490.890587
492.297746
494.588678
495.665020
489.991932
488.622603
491.796196
508.225911
503.545511
496.349576
497.864617
490.035753
491.101549
494.284536
487.419290
496.816724
501.217446
490.702122
486.867094
491.687244
495.888284
487.845288
488.388581
485.860926
492.230242
487.689811
485.174944
490.572844
504.067059
491.803605
494.598255
490.140989
492.550106
495.085649
501.706033
497.506611
486.789188
493.626583
489.934881
491.212111
492.777964
495.413399
501.266986
486.356387
482.704392
486.448944
490.101917
495.499200
494.674407
491.759936
493.078327
494.023741
492.202535
496.640209
494.086559
493.529803
489.196295
490.773771
489.261895
487.623495
496.561009
493.345549
490.125132
491.983490
488.662484
493.978986
486.044118
492.030086
499.729941
493.205582
488.666765
485.278440
489.899704
496.481357
495.393470
496.141350
493.746697
495.833687
495.641698
501.178277
500.970599
503.332888
491.049914
492.929606
491.435108
496.490380
490.366328
484.687042
495.204180
498.222029
501.417218
499.498427
497.508431
496.017980
495.165203
492.693392
493.199630
490.559972
491.931655
486.469214
484.222455
490.246882
492.858978
491.235709
484.272223
489.706366
492.464151
