2324.843367
1792.828824
1195.079363
875.338032
746.487336
640.816989
604.541365
543.774839
526.285880
513.930281
492.397359
491.416707
494.609147
497.032271
488.653311
491.261323
495.397688
495.361120
494.673906
494.586209
492.987881
489.416289
484.882647
484.245716
482.013053
485.307561
500.653188
501.088061
497.056836
496.051033
494.708033
502.577592
499.751988
487.334442
493.316531
496.934807
497.656839
498.123813
490.725640
499.554815
499.813076
495.542703
489.602655
485.560088
487.696317
491.501904
496.434674
496.639444
495.100103
496.873374
489.879750
488.944450
488.404038
486.147077
494.422543
493.682722
488.859807
489.003600
492.095875
491.502019
495.891442
500.448942
494.272450
497.573166
493.938476
487.844607
488.969394
487.625472
484.130502
492.305436
488.008118
489.644635
490.666868
491.428142
495.260926
493.483964
488.154126
495.222524
493.033260
491.875936
489.997412
496.281196
494.551380
486.596534
492.367063
485.012593
487.588660
488.245505
488.806047
488.456778
490.129913
486.406806
492.553269
491.987542
490.767924
494.764958
495.310992
493.331108
496.259967
496.613372
485.397961
489.474858
495.372668
486.739289
490.627659
486.854793
486.051184
488.309164
494.452053
497.092125
493.444986
487.539302
487.502621
485.843928
488.413732
489.993482
488.081377
493.900557
493.798657
487.114892
486.094538
487.186967
488.022176
489.287353
488.475887
483.210537
487.578400
489.332594
489.481633
489.647854
489.593874
488.847635
490.193837
490.034307
491.940086
495.769391
494.073841
497.399549
493.206634
500.387728
504.528893
504.625412
497.811893
501.732820
495.475093
499.477047
510.679603
495.136907
493.435066
496.271336
495.043403
495.644145
500.501121
493.230527
493.496753
486.755424
492.050269
495.126837
495.006823
497.279655
500.745026
490.407459
487.457755
491.993087
493.835347
493.077387
489.549334
494.412803
494.446262
489.465989
485.973671
490.229944
486.567155
490.681428
501.706132
504.520135
501.885002
493.404936
500.973897
490.957925
489.984171
493.559051
492.180499
495.647421
500.823766
501.642115
501.071034
488.053815
491.877560
488.297691
492.324161
486.022244
487.445619
491.070886
488.944782
488.516748
486.590052
488.393773
491.203881
488.139306
493.142888
489.917002
494.161737
489.653007
492.497849
491.600122
491.808564
481.253872
492.882002
491.185604
492.995205
485.061806
491.441567
494.346197
494.034078
496.029740
497.175955
494.165193
495.550955
498.254453
496.813063
494.999853
486.512495
488.209806
487.760624
491.602534
489.912541
485.874897
499.431999
494.609523
486.832938
498.288761
488.524681
490.127843
493.872700
495.301143
493.826500
497.635218
499.930927
494.097770
492.761002
499.000226
499.641975
493.735369
499.408048
498.226389
485.489949
494.484576
491.586663
491.425687
488.673869
492.917680
504.217314
496.405491
495.447567
494.442287
489.538488
490.707252
484.989368
496.271546
493.428991
495.481201
503.694492
499.905439
496.578824
502.488410
491.835187
499.710804
498.852048
493.584414
495.229312
497.795197
485.118587
491.037195
487.856075
490.213021
493.509406
488.894550
488.808383
493.683977
489.258903
484.028823
484.900208
488.098692
493.229359
494.386576
490.468871
491.414874
499.926814
504.871531
495.082080
492.751464
490.733834
493.113470
486.719002
501.936349
505.964463
508.035495
502.403434
500.047084
490.924123
488.431598
492.669392
494.824421
496.631758
491.093188
490.977746
491.866815
490.707449
492.363726
489.679713
491.282960
487.718109
497.347218
495.501821
486.397196
484.526137
487.774093
491.921515
484.914090
487.259522
482.684982
486.559111
488.542799
487.946315
488.911540
494.331853
501.138776
499.743611
501.386706
492.449102
486.656948
492.969894
488.735243
492.126650
490.277007
495.876846
492.110876
487.694083
483.872465
491.021916
488.336056
488.182934
500.401816
500.281378
495.915391
497.740257
494.926223
496.857821
493.154360
498.217499
490.866499
494.488852
501.455846
496.599700
487.901775
489.348848
484.873720
492.191540
489.843367
489.973864
491.108263
493.352424
492.818809
493.691011
499.526110
502.320349
494.569199
490.062390
490.204515
487.698969
485.337768
490.099541
487.509110
491.801922
496.011745
501.015047
491.793984
505.743944
495.048006
491.579718
488.842842
488.191699
491.058903
492.356866
488.305026
487.239904
488.891695
498.891686
496.023303
497.055660
492.825009
492.164918
491.215811
501.423744
498.662828
493.371991
501.821660
496.442971
507.145210
497.448453
495.722630
495.880689
496.601955
490.585936
496.030429
494.064973
491.638437
493.790957
490.883257
493.059724
493.188129
487.297545
489.315938
489.684090
489.911789
497.804212
498.599290
491.910769
491.646912
498.392739
501.269847
496.898319
494.440054
491.995141
495.661992
491.501176
491.034682
495.349585
493.945208
490.268324
495.545452
487.386107
489.930195
484.486453
488.961070
484.216954
488.175376
489.809452
495.454397
494.609740
499.445304
490.274411
489.256497
492.038800
484.150443
489.347999
485.757068
483.569036
486.991936
481.136507
484.844993
488.864624
494.625589
487.966176
489.390113
489.644721
487.431391
491.328186
494.320789
495.405613
496.007400
498.135795
486.585534
490.360790
496.450608
501.232793
488.481371
481.390193
488.092979
490.901921
490.754829
493.032629
495.923716
488.291948
493.970309
497.310782
500.861402
499.682592
498.606097
489.017539
489.121627
500.062928
493.596430
492.886991
497.428656
493.088520
490.292268
492.214510
502.071289
490.139886
490.852487
489.060253
483.462200
490.701822
487.881219
487.445513
487.488117
496.054853
501.482378
497.922998
489.461021
486.783652
485.242349
486.503204
487.239295
486.601247
485.585024
489.050636
494.399455
494.659550
498.003476
499.071159
499.630881
496.496096
492.183593
485.568662
487.786014
489.889110
488.671251
498.952374
488.522496
490.603619
491.440289
500.766577
503.631795
499.554746
497.589732
491.555835
494.742235
502.266253
496.674983
494.164358
492.647905
489.225962
487.322450
487.691802
486.988312
489.270230
489.834937
492.342672
494.382888
497.182581
493.074091
493.107354
491.540822
490.679182
492.520435
493.782235
486.736317
487.843606
497.012832
488.283713
489.614565
489.553394
489.109875
494.746557
499.672372
504.564856
503.223968
501.027913
505.287840
498.166313
498.712545
502.144640
499.982960
499.052442
499.647264
492.549496
493.461846
495.969744
487.062982
488.606974
487.666831
488.402982
487.504009
481.703715
487.037144
490.061468
495.520916
496.076158
490.748902
482.796155
487.572498
484.081509
485.533054
489.536708
496.263063
496.892561
494.577644
505.399812
498.053963
490.064095
491.020532
496.050062
493.917438
493.108184
490.383614
491.164088
484.308061
484.598616
493.874041
487.813098
484.896260
485.231498
486.702457
491.868217
488.713723
494.493278
491.798023
490.842933
491.343411
493.540675
492.526112
492.621127
492.992459
496.134238
499.830727
492.904246
490.306372
494.224437
490.379450
484.301333
480.010544
486.776469
485.511660
487.810626
494.085506
491.797549
491.853089
494.996178
489.828765
489.952290
492.263330
491.677701
498.509544
490.730500
490.516622
485.498910
498.116087
485.588563
488.529877
492.402836
490.889885
495.644642
492.319963
489.278749
487.169926
488.840712
488.990555
493.319159
498.023814
493.026288
494.053588
498.467711
493.811664
486.641190
494.023966
490.240171
489.261449
490.294321
490.921939
496.418183
491.036271
492.253881
490.551793
495.348023
493.155412
494.314016
486.363145
488.950416
498.038725
497.196608
493.234051
488.055431
490.366481
489.907782
487.396961
491.731506
493.648201
493.858676
500.661732
495.554963
490.577905
490.360103
493.408677
501.597734
493.715004
495.648484
492.774467
491.821079
494.173569
493.409702
493.749809
488.687593
491.196651
487.748852
484.686332
490.605433
499.159666
501.308727
499.523957
501.316028
497.852773
494.365133
495.588265
493.977288
490.322706
489.799482
500.973256
500.262346
494.551164
490.560415
496.218230
499.762846
489.241411
488.529011
502.220470
490.785129
505.691103
498.639066
498.012551
494.826176
491.279715
493.742843
497.313335
498.300588
492.363794
493.484157
492.415600
495.132677
491.414870
497.263949
491.752713
485.476246
488.845361
505.800517
499.475935
502.202951
502.558446
504.556198
499.867168
491.742947
488.484476
487.332204
482.930359
488.472095
493.487850
490.953561
492.001539
493.005578
497.844698
505.006863
507.106619
493.151887
489.662663
484.906265
486.277257
488.260500
486.462466
493.869503
489.773350
488.487819
489.024253
489.176042
492.738849
495.436573
489.190717
485.091289
483.720498
490.650435
486.736426
483.473173
492.843539
498.832424
493.738650
493.460289
489.420561
480.516068
485.580193
487.490491
487.748333
495.239088
494.923125
495.150832
493.351777
488.935432
489.694471
490.858188
487.891437
493.889221
496.737598
497.075165
494.854482
494.568732
487.046759
505.117520
487.478527
493.596259
487.717979
481.923663
487.046911
490.053711
485.622069
486.840761
488.763796
488.507873
495.530152
488.498036
482.847964
493.427955
491.494842
490.537941
494.601039
499.883756
494.757168
490.881050
488.096854
492.876147
484.887849
483.788704
482.922956
489.796067
491.890850
493.819010
495.434482
488.693221
498.264926
496.365979
491.713217
488.989892
495.503721
486.507365
483.750105
489.705851
494.058425
498.570797
484.188691
489.800696
491.238192
487.277711
492.335398
492.991084
492.792693
494.613689
494.489484
496.194706
490.440915
490.935608
484.553997
491.309905
494.194822
493.239550
491.599479
492.059308
495.764911
489.647211
489.915781
494.405995
490.605472
496.766243
498.018794
490.656463
489.983625
487.368695
491.331895
495.717806
491.229386
492.247804
492.193111
496.638587
494.450968
492.820874
489.348229
489.348074
486.108549
485.733719
487.056006
488.791495
487.671903
494.029196
494.736070
492.306787
490.174806
505.385028
493.658285
492.549755
491.908268
491.109946
494.434473
487.546630
491.310391
488.449167
485.767568
486.095856
492.750472
490.109087
491.394277
488.075330
492.292574
496.956748
500.429062
497.535021
496.926078
495.894799
492.493380
489.578137
498.244222
496.444466
495.301558
500.320767
498.976803
494.538435
497.252493
491.673044
489.424088
499.493454
503.998662
488.240480
490.533000
488.838280
485.839631
486.000950
489.726440
495.903409
491.770612
493.267150
494.086757
498.064262
486.939116
493.324082
493.011980
500.044156
510.201502
498.133211
492.651404
497.933457
499.601687
494.928343
500.281945
499.042538
491.017068
490.148552
492.097311
487.993807
489.395138
488.138430
484.630863
483.452020
492.191999
491.541798
484.278451
483.490030
486.076659
484.208787
500.713090
497.611988
489.231514
489.991040
487.980785
486.317260
484.184616
488.493397
487.549841
489.292768
496.843787
496.246770
494.556926
491.568153
492.862750
495.900835
490.648626
490.560519
490.337215
495.067797
498.705143
494.500995
495.165618
496.600870
492.153183
485.044521
486.319436
484.846450
486.178748
484.708274
499.030828
492.262842
484.570005
488.235537
489.648492
490.223479
492.261348
494.381748
498.175006
496.509305
498.865949
501.863196
492.120640
488.049027
490.574282
498.229179
489.411746
490.319318
487.323657
491.191336
483.868192
488.087789
485.792723
497.347838
490.261403
489.875616
489.366253
488.955249
483.571128
491.615888
491.734540
498.208095
488.327239
494.062920
487.147787
492.791406
490.733559
496.886991
488.439015
484.766815
490.412399
483.528870
486.740549
483.289936
484.665948
485.610144
497.149972
488.985915
494.725009
496.661700
489.330315
486.405363
488.351878
492.813260
488.674510
488.029969
488.022208
489.875460
484.329132
483.174815
486.857109
488.726828
485.491171
483.888210
495.947247
495.628488
490.284049
491.777149
492.298420
487.026499
483.903458
493.761431
491.197306
494.635647
491.747954
496.650881
495.998135
488.201964
491.070256
490.930214
489.313018
495.648490
494.303573
487.638179
487.836104
488.776449
492.203052
485.059958
488.884095
489.177266
489.130220
489.085788
484.434120
484.043887
498.611629
491.215634
483.680591
487.399717
487.525754
489.407349
497.543097
496.314103
501.606074
497.751152
494.284575
494.668520
493.008054
490.642415
489.766063
489.848684
488.803543
493.364065
491.750310
490.119526
492.162371
494.467111
495.903491
492.746305
493.956773
493.189161
485.698324
493.152700
497.047221
497.131215
500.239579
497.748658
494.751962
491.807709
490.377732
491.960267
498.142035
497.158277
496.934408
497.744821
494.548132
492.859978
490.115802
490.440029
496.592014
498.514679
506.174269
504.550549
493.091799
497.571184
502.157972
502.861438
504.309678
503.002518
498.343409
488.922406
489.014664
483.888632
484.061940
483.909948
486.858506
486.022656
489.091482
485.677771
485.433626
484.845379
489.500604
490.654214
492.638505
491.391177
489.745552
500.824921
499.188271
498.895805
489.414109
492.966403
496.726382
501.865374
496.501772
501.313560
503.488436
490.639062
484.747250
488.892164
494.754863
495.001276
484.606277
492.465047
486.909897
483.431860
487.833385
495.631687
497.445782
494.556097
493.970691
501.398637
487.907954
489.917008
495.813579
495.535916
496.719059
487.421207
485.224129
489.684248
491.460386
488.425272
488.720966
491.007844
490.428312
491.824050
487.352544
480.873914
491.778306
492.125810
493.374642
498.924097
495.108435
496.669385
498.479605
495.525808
493.492194
501.735606
489.732905
493.459609
490.919304
487.966174
489.774532
485.347685
486.040416
491.613906
493.055153
485.293447
485.937854
482.945346
487.643933
489.892082
486.117254
487.214619
486.760098
502.643787
499.796848
495.333053
493.495104
491.768078
492.917401
493.281247
496.754712
488.992526
497.564568
495.107975
500.522734
498.436415
493.128532
497.029809
491.835876
487.529644
483.677130
487.164992
490.687929
486.195607
490.587690
491.670856
494.384282
490.476453
492.930494
500.281953
489.878668
489.046429
492.494673
495.276351
491.234263
491.363745
493.061148
491.837259
483.769398
485.103052
486.974795
488.314812
495.084559
496.589831
498.146413
491.146936
494.409413
493.736392
493.247010
491.723400
497.968704
503.303382
490.965593
492.904403
504.388517
509.707734
493.430527
491.053463
488.763286
493.818411
504.519580
491.611151
494.196536
495.699854
493.707809
483.930283
489.105854
490.878166
497.502835
493.791927
487.862702
486.111484
488.994054
490.166717
487.573633
491.570595
487.722443
481.314911
486.897549
496.906458
498.782835
498.173632
497.908043
493.931088
488.985924
493.420640
496.920798
497.736645
495.588103
496.089747
489.104402
488.306939
489.721189
488.239789
491.312224
498.886304
500.005835
494.336046
495.448558
494.041457
496.937712
500.184103
501.655138
499.165107
492.918524
495.360239
498.518251
497.460087
495.557389
487.170101
492.335279
499.926004
494.397804
495.217157
497.937136
498.852423
495.874472
497.038483
495.519584
496.581756
491.240681
488.757886
491.894489
494.533436
490.508255
495.498930
493.215827
495.957227
493.969034
494.337818
491.306223
494.411163
499.201951
495.593439
503.358247
497.195958
497.604130
493.898428
489.611475
488.942143
489.155133
487.107598
491.921776
489.673904
484.211208
483.538710
484.546421
492.761665
487.159637
493.925597
489.718776
487.645931
489.903477
483.262316
485.370725
488.447301
486.362048
494.479395
495.785645
490.817280
488.918368
500.839400
496.668227
493.649185
503.868270
494.075362
492.797337
492.269788
492.302036
498.069265
504.126253
499.827142
491.723438
493.767602
494.213964
502.303734
502.569083
493.902520
492.483828
494.031787
496.907099
489.755770
490.051671
488.021177
490.551731
490.394951
494.376437
490.238644
492.473571
484.420996
493.616936
489.957657
488.202004
488.642142
488.244947
489.732665
493.598048
497.810485
486.764052
488.581535
498.919178
493.209611
494.278768
492.643288
490.866700
488.339875
482.428034
487.525034
491.456097
491.377125
491.834572
489.991903
496.537491
502.189714
505.555446
498.159413
496.143193
499.217930
493.853803
497.602909
494.074122
488.249879
486.780937
482.196224
489.985310
489.950872
492.560109
487.297428
492.218008
488.356084
485.398208
494.922037
488.674327
499.343332
495.949571
499.468230
492.028687
494.919051
494.011393
488.730387
491.192447
491.155637
495.071865
492.391813
494.674003
492.006876
491.719750
495.509561
491.793158
484.133737
488.408848
493.965284
494.359817
494.222184
486.891344
487.367875
486.507125
493.643336
492.408831
502.046012
498.257667
488.280921
486.655941
490.870380
496.221699
494.212860
493.112264
489.735508
494.082249
489.540323
493.308616
494.370617
500.021746
486.402013
496.955553
492.896993
495.077543
492.124765
493.302943
493.792161
496.167277
498.114866
496.522231
495.178425
490.024081
489.235133
491.789251
488.708535
493.468726
495.489502
496.367172
496.085104
498.762118
502.036071
494.239073
489.540657
489.966460
491.970537
496.722539
496.094453
500.638438
495.272970
488.837198
492.772896
488.720392
491.320542
488.598613
488.915332
487.138742
488.716194
491.462885
488.438095
490.435745
487.036841
492.141103
491.226659
487.306817
491.410593
492.989590
493.933317
494.119831
488.908860
497.291019
493.873294
498.115925
490.817805
493.321383
493.619950
495.497464
506.020801
499.295883
491.029495
491.421622
490.477806
496.691735
493.327754
494.165041
490.028379
488.589034
486.919353
489.526957
481.493971
485.795120
492.570651
489.421651
492.043412
492.417669
490.516940
487.861157
491.794086
497.606688
495.154439
489.177778
492.101526
493.966530
490.953633
493.175281
495.392036
490.080252
483.019387
492.017997
491.465057
495.010773
488.877407
489.192561
493.653936
494.681400
502.673391
508.306624
491.613303
498.698949
497.966939
501.239302
510.001797
516.497552
516.912806
508.514346
497.903440
499.800528
491.650038
486.782994
495.794275
493.387872
491.888035
484.368568
486.546412
486.316450
498.038243
494.136744
497.643520
499.914340
491.538705
494.407186
495.480153
488.017158
483.681039
491.666615
486.679522
482.712685
486.855107
484.765661
483.491150
495.309156
488.999886
490.402807
495.974438
489.089493
497.670000
497.205567
492.255936
491.339371
493.546838
493.195632
490.379388
492.989603
493.151040
491.080360
490.377211
495.724966
486.221169
485.760020
488.634752
494.921309
496.680779
499.945095
494.368703
496.189922
496.334378
495.701262
497.309101
495.199549
501.411497
506.165789
496.435717
496.033857
491.674942
493.683518
490.376236
497.084122
500.161486
504.242134
497.628772
490.119903
483.570718
486.473586
486.522651
492.669754
493.238515
491.605544
489.877180
491.623970
488.944637
491.084636
494.521278
497.422640
498.398020
490.671373
497.334152
499.517684
499.660446
485.864622
489.347508
485.352742
491.774642
494.395048
491.245701
491.045883
488.066183
489.123089
488.812029
497.498412
494.121316
493.208313
496.498530
487.692125
488.813376
492.188967
501.509525
485.402918
490.684716
494.060211
499.492009
488.953562
487.859586
488.261882
488.715690
497.287181
492.763775
490.943511
494.033458
497.328187
501.278130
499.082448
493.724639
489.872457
499.086371
499.968833
492.553040
490.487448
497.077376
488.056745
491.592015
489.513777
498.642805
496.755726
495.150614
489.542194
494.597151
492.404291
493.648722
500.568931
497.566914
495.193752
495.351200
503.238439
493.580264
494.955178
490.095911
484.045715
492.078398
487.937874
488.664951
492.648401
494.168292
500.380642
499.654064
504.185668
493.665254
493.786067
495.623386
502.653903
503.548775
501.888815
502.630369
500.684901
494.513925
492.727360
491.788457
489.288390
498.179398
492.056396
499.869494
491.835948
492.662317
491.329834
495.413724
487.661034
488.607994
489.601453
489.576755
494.667040
493.063389
497.846829
489.826431
497.555455
492.157484
489.221317
487.016946
488.235094
488.159697
484.018277
484.906979
489.867264
491.717168
488.146104
489.134447
492.277584
492.495728
488.315841
487.941601
494.163450
498.091546
497.282081
489.543658
491.165977
494.293284
496.554745
497.159543
496.875779
491.852213
490.707117
488.840815
484.957139
487.342899
486.453376
485.534579
488.917754
494.019271
493.430725
493.441127
503.939843
491.968841
491.977458
491.684056
492.122988
496.052526
494.995538
487.388126
484.355812
487.083888
487.459197
487.987037
487.523823
494.158695
493.310825
492.044517
494.250581
489.816010
491.210832
497.103648
485.161359
492.375439
488.693986
496.884292
496.254807
491.594063
492.460456
488.551530
492.695497
491.377926
493.992535
494.686790
494.935326
496.655511
493.252166
497.577615
487.206507
491.546626
485.460788
488.800895
494.648541
494.424816
491.220088
497.060077
488.527173
483.659357
489.689233
487.500128
489.085254
493.045806
488.330989
497.940961
496.971898
497.615685
495.599469
492.241406
503.327294
508.505609
499.568271
499.453248
497.770159
492.874619
483.775367
486.177705
490.773970
491.713749
491.032524
500.790792
503.077775
495.196377
494.102527
490.322859
495.948310
491.221047
488.121160
486.573938
490.348157
492.368932
497.743827
493.230512
492.345053
503.305573
500.767205
499.432556
495.682888
495.943711
489.391774
488.100829
490.855543
492.479434
494.292311
495.690113
489.966890
488.866651
491.569065
507.635873
504.059341
496.469437
497.660286
490.159400
490.928641
494.299233
487.409890
496.613763
501.498878
490.374777
486.846313
491.640679
495.785531
488.166880
488.001044
485.882246
492.084304
487.868489
485.131261
490.305933
503.759150
491.920603
494.446981
490.168646
492.433100
494.927170
501.762675
497.565672
486.972690
493.599515
489.970866
491.120814
492.880863
495.265688
501.224305
486.489763
482.793274
486.278494
490.078671
495.468619
494.772054
491.888204
492.793732
494.050265
492.249336
496.775000
494.031983
493.516966
489.333634
490.931436
489.221123
487.422530
496.424512
493.508281
490.138997
491.965871
488.540109
494.085008
486.080961
491.895622
499.672371
493.411691
488.747790
485.207742
489.755030
496.492816
495.212046
496.158385
493.937047
495.797984
495.729003
500.995468
501.039621
503.335374
491.408717
492.925937
491.312167
496.671193
490.352113
484.634881
495.162095
497.968049
500.911251
499.785224
497.761472
496.116414
495.286220
492.749637
493.272159
490.504400
491.982756
486.513686
484.200119
490.120068
492.829067
491.319678
484.412144
489.406511
492.486380
